{
  "__type__": "cc.SpriteFrame",
  "content": {
    "name": "ground2",
    "texture": "cba0a777-c3aa-41b6-85e5-7fa124c4567a",
    "atlas": "",
    "rect": [
      0,
      0,
      40,
      40
    ],
    "offset": [
      0,
      0
    ],
    "originalSize": [
      40,
      40
    ],
    "capInsets": [
      0,
      0,
      0,
      0
    ]
  }
}