{
  "__type__": "cc.SpriteFrame",
  "content": {
    "name": "Image 463 at frame 9",
    "texture": "b7d0d939-69eb-41b3-8edb-209d4756c369",
    "atlas": "",
    "rect": [
      6,
      4,
      46,
      63
    ],
    "offset": [
      1,
      0
    ],
    "originalSize": [
      56,
      71
    ],
    "capInsets": [
      0,
      0,
      0,
      0
    ]
  }
}