{
  "nodeFoldStates": [
    "03KZqMd7VF5pS1jhNoh1GG",
    "577sDONelKFqWc2voyQQPT",
    "bckD0FRKhIC63Z7r+vMt0A",
    "82tOzt7tdM74yuBJYgBERY",
    "e9+0FGjFZFFZdZMx6F/yk8",
    "82eoTAqwlBQppXiPh0SrLP",
    "a16M3wW9ZP1ozHZ36D2Saa",
    "f250zDG6xFqqoI4fXapEtP",
    "2cE094siNKPo8uKe6/d3Un",
    "42I6qMOetFmqIE6KlctRVR",
    "54l1ydReZLCbJdanjn/7Vc",
    "eeHo71M4xHqKHqEFwN6Lan",
    "c5PB6RbH1NeIYie6h3lHpF",
    "c3nWNVCIJLcZlx9OmYhf9f",
    "a1umIQ29ZO+avb/Sa0uFa9",
    "b7XS84nrFDA6ktgnOFj8Wr",
    "10VMYc2eJAtL89b5jVpfIo",
    "4eXWCngvlIhLMLzE0QCbAZ",
    "14iEcbicNLyZW/CxEr9r6a",
    "7ftrYuOzFHiJ79E7qguh+Q",
    "d5VQIJdKNHKIiZgvthPUH1",
    "51mY/JyV1Mird1YUDERDEE",
    "a4Ar05Fv9EyLhzfCFZ5yjg",
    "caoxTEOGJO/IPNwD0MTTGu",
    "61wi0/LSBHqJQ9IHGtzIHV",
    "7ce1JhrSNBXqWErX0MbQEU",
    "acbZlhgGpMN6wP7I/Cxxy4",
    "75kZSifvdP+6zW4Tq56GPw",
    "8aFoAxm9pGbKSlnxrUlQwL",
    "efRJXq9UtDAafK34OMK78L",
    "8cQm4ZsphKC5EUIP3dWgSB",
    "66zxMJ7WhFg4PLUPXvSNMg",
    "9a0b2aoHlJfoGLgZ/g/7J+",
    "88Ie+dSqFIvJn1IRdLHqAZ",
    "e6ldNhb25Lw4ZjbT0vzLgd",
    "e1zeeEyeBBoJybH7KoZ0Yj",
    "724kg2YJpNPYMy5ThVunRZ",
    "b4dumIgQVO4bf81+WEPBGP",
    "acWRJgxvFOa5lrDyTdf6LX",
    "0aZ+Y4Ez5DM6bpbBfVnLGS",
    "a0hAjdnrhD+aIvMWnzkE+G",
    "d2WgkQuVNA7o2YF3auHoe3",
    "e4VNDlizZNCZgY+kHBiAQe",
    "97k3CNQ4dKgZf3eRNEfI/4",
    "bcnKNBSmtNs62HmKexkW5j",
    "e55bMuzzxIj4ZGlyToZp/W",
    "adFc9rk+pDB5isdBdJxkry",
    "19dmkvQXFCgoy91jBYdrF+",
    "5ckrq46jpBAZmR5rxMafhH",
    "5dCE7i9UFKpLGhdmEs6FWx",
    "a9e2tTyxNLi7acirikjhEd",
    "b3BAnQ7GBNwrouS7n8mDVH",
    "52xkBsAntOxYnYPfc55Fh7",
    "d7UgJGW4RMtaJI2qZ3TOpl",
    "c2zux137NCEKb7oLsNPoay",
    "e1o0rHY8pMk7s44BNexaz4",
    "07tVF6fW9Ad6I01YS9o3+K",
    "62ypialX1Lpo7UPtWlaQJU",
    "99wsbRPqVM7JuA9C7FOULc",
    "d2KuWAORxIIrmtFkri/+Bm",
    "6fBuzrCFBJaYuDwFoDjk6r",
    "86EJeL7LdKhbgJZiQvnoDG",
    "4ePH5EJWxB04RMCpg8MMzz",
    "f6hWaudGFKI62sDRCCCAgp",
    "a1xMUXunhML46sf4nFTnzN",
    "a4ZXatDnJDYJFjaMPRAoXZ",
    "8dzlgbdqxJLIkJ6yia2koA",
    "e1lt2evkdEMqI+A+UUw7EC",
    "65xDtned9Os5jyO8AhVaMK",
    "1bcdeqBqFOLYaNrbAZHE7i",
    "25rozwujBCtqvdjfEiHoQp"
  ]
}
