{
  "__type__": "cc.SpriteFrame",
  "content": {
    "name": "Rhouse",
    "texture": "8d20c3e1-7eaf-429e-9046-b3ed1e1167be",
    "atlas": "",
    "rect": [
      0,
      0,
      40,
      57
    ],
    "offset": [
      0,
      0
    ],
    "originalSize": [
      40,
      57
    ],
    "capInsets": [
      0,
      0,
      0,
      0
    ]
  }
}