{
  "__type__": "cc.SpriteFrame",
  "content": {
    "name": "Image 37 at frame 9",
    "texture": "8cc023d2-4f4b-46be-9b57-7088780caf6b",
    "atlas": "451315c7-caa3-42c0-9f47-e8b8fee55120",
    "rect": [
      1,
      139,
      46,
      60
    ],
    "offset": [
      2,
      -5
    ],
    "originalSize": [
      66,
      76
    ],
    "rotated": 1,
    "capInsets": [
      0,
      0,
      0,
      0
    ]
  }
}