{
  "__type__": "cc.AnimationClip",
  "_name": "normal_block_destroy",
  "_objFlags": 0,
  "_native": "",
  "_duration": 0.6,
  "sample": 60,
  "speed": 1,
  "wrapMode": 1,
  "curveData": {
    "comps": {
      "cc.Sprite": {
        "spriteFrame": [
          {
            "frame": 0,
            "value": {
              "__uuid__": "4428ca6b-dadd-4079-91ca-18149c88be6a"
            }
          },
          {
            "frame": 0.08333333333333333,
            "value": {
              "__uuid__": "38eb7c37-b68f-493f-a331-5a99acdb6f7c"
            }
          },
          {
            "frame": 0.16666666666666666,
            "value": {
              "__uuid__": "0433af63-f40f-4cd9-b561-562393df0a73"
            }
          },
          {
            "frame": 0.25,
            "value": {
              "__uuid__": "321ca0d6-bfbf-4e07-bced-c2e72eeca9b8"
            }
          },
          {
            "frame": 0.3333333333333333,
            "value": {
              "__uuid__": "2b6cca66-b0a9-4bd6-9431-765260c5a514"
            }
          },
          {
            "frame": 0.4166666666666667,
            "value": {
              "__uuid__": "feeec7e2-ca4f-4511-a2c7-e462648856ee"
            }
          },
          {
            "frame": 0.5,
            "value": {
              "__uuid__": "72397d0e-7ae0-4894-8a6d-3197c151243c"
            }
          },
          {
            "frame": 0.5833333333333334,
            "value": {
              "__uuid__": "09923f78-e31a-4d42-bfbd-2813f9f30365"
            }
          }
        ]
      }
    }
  },
  "events": []
}