{
  "__type__": "cc.SpriteFrame",
  "content": {
    "name": "money_form",
    "texture": "d7940ad5-0f1e-48ec-81e8-622186f473f4",
    "atlas": "",
    "rect": [
      20,
      20,
      666,
      134
    ],
    "offset": [
      3.5,
      0
    ],
    "originalSize": [
      699,
      174
    ],
    "capInsets": [
      0,
      0,
      0,
      0
    ]
  }
}