{
  "__type__": "cc.SpriteFrame",
  "content": {
    "name": "Image 114 at frame 9",
    "texture": "8e037617-71a2-4b2e-8d41-61f347c61d1e",
    "atlas": "",
    "rect": [
      3,
      2,
      67,
      67
    ],
    "offset": [
      0.5,
      0.5
    ],
    "originalSize": [
      72,
      72
    ],
    "capInsets": [
      0,
      0,
      0,
      0
    ]
  }
}