{
  "__type__": "cc.SpriteFrame",
  "content": {
    "name": "waitfriend_off",
    "texture": "5d82829c-8698-4dda-85a3-7093fe48713e",
    "atlas": "",
    "rect": [
      5,
      3,
      224,
      119
    ],
    "offset": [
      -1,
      3
    ],
    "originalSize": [
      236,
      131
    ],
    "capInsets": [
      0,
      0,
      0,
      0
    ]
  }
}