{
  "__type__": "cc.AnimationClip",
  "_name": "pirate_idle_up",
  "_objFlags": 0,
  "_native": "",
  "_duration": 0.016666666666666666,
  "sample": 60,
  "speed": 1,
  "wrapMode": 1,
  "curveData": {
    "comps": {
      "cc.Sprite": {
        "spriteFrame": [
          {
            "frame": 0,
            "value": {
              "__uuid__": "b98b20cd-8603-49ab-856c-c983f8539bb8"
            }
          }
        ]
      }
    }
  },
  "events": []
}