{
  "__type__": "cc.SpriteFrame",
  "content": {
    "name": "Image 107 at frame 9",
    "texture": "07da75a7-fd54-4bf1-ae39-db8d91e2ff19",
    "atlas": "",
    "rect": [
      6,
      4,
      44,
      60
    ],
    "offset": [
      0,
      1
    ],
    "originalSize": [
      56,
      70
    ],
    "capInsets": [
      0,
      0,
      0,
      0
    ]
  }
}