{
  "__type__": "cc.SpriteFrame",
  "content": {
    "name": "480",
    "texture": "46cffb2c-9cbc-4382-b509-d32c49f4dc49",
    "atlas": "",
    "rect": [
      1,
      1,
      115,
      103
    ],
    "offset": [
      -0.5,
      0
    ],
    "originalSize": [
      118,
      105
    ],
    "capInsets": [
      0,
      0,
      0,
      0
    ]
  }
}