{
  "__type__": "cc.SpriteFrame",
  "content": {
    "name": "431",
    "texture": "92b8d2fe-52a6-4693-bf10-2187535b9584",
    "atlas": "",
    "rect": [
      0,
      0,
      120,
      120
    ],
    "offset": [
      0,
      0.5
    ],
    "originalSize": [
      120,
      121
    ],
    "capInsets": [
      0,
      0,
      0,
      0
    ]
  }
}