{
  "__type__": "cc.SpriteFrame",
  "content": {
    "name": "bg_frame",
    "texture": "2c6fffeb-c9cb-4143-b0f1-34542fbe19dd",
    "atlas": "",
    "rect": [
      10,
      37,
      459,
      417
    ],
    "offset": [
      -0.5,
      -13
    ],
    "originalSize": [
      480,
      465
    ],
    "capInsets": [
      0,
      0,
      0,
      0
    ]
  }
}