{
  "__type__": "cc.AnimationClip",
  "_name": "player_move_left",
  "_objFlags": 0,
  "_native": "",
  "_duration": 0.35,
  "sample": 60,
  "speed": 1,
  "wrapMode": 2,
  "curveData": {
    "comps": {
      "cc.Sprite": {
        "spriteFrame": [
          {
            "frame": 0,
            "value": {
              "__uuid__": "c491617c-91a2-4180-a127-4950069bec02"
            }
          },
          {
            "frame": 0.08333333333333333,
            "value": {
              "__uuid__": "eba5e4d0-5128-4ca0-a0db-0b935a794482"
            }
          },
          {
            "frame": 0.16666666666666666,
            "value": {
              "__uuid__": "77d58683-7c01-4ad2-9682-e9a556b7070f"
            }
          },
          {
            "frame": 0.25,
            "value": {
              "__uuid__": "7cb9dc1f-6834-4e3d-accf-97d2449f5af2"
            }
          },
          {
            "frame": 0.3333333333333333,
            "value": {
              "__uuid__": "6ed173d2-ea94-4a31-a99c-1ec514b4709c"
            }
          }
        ]
      }
    }
  },
  "events": []
}