{
  "__type__": "cc.SpriteFrame",
  "content": {
    "name": "shop1",
    "texture": "31b14278-912a-42fa-8d84-8f7f145fb9da",
    "atlas": "",
    "rect": [
      0,
      0,
      184,
      87
    ],
    "offset": [
      0,
      0.5
    ],
    "originalSize": [
      184,
      88
    ],
    "capInsets": [
      0,
      0,
      0,
      0
    ]
  }
}