{
  "__type__": "cc.SpriteFrame",
  "content": {
    "name": "Image 480 at frame 9",
    "texture": "6d642325-8a0d-430d-aaa3-367865f55c37",
    "atlas": "",
    "rect": [
      0,
      1,
      49,
      65
    ],
    "offset": [
      -3.5,
      0
    ],
    "originalSize": [
      56,
      67
    ],
    "capInsets": [
      0,
      0,
      0,
      0
    ]
  }
}