{
  "__type__": "cc.SpriteFrame",
  "content": {
    "name": "Image 462 at frame 9",
    "texture": "6c144416-d373-4967-8a23-c4b5ea4c38f3",
    "atlas": "",
    "rect": [
      1,
      4,
      54,
      62
    ],
    "offset": [
      0,
      0.5
    ],
    "originalSize": [
      56,
      71
    ],
    "capInsets": [
      0,
      0,
      0,
      0
    ]
  }
}