{
  "__type__": "cc.SpriteFrame",
  "content": {
    "name": "Image 482 at frame 9",
    "texture": "923e9740-d701-46b2-8f39-07e9141fbb92",
    "atlas": "",
    "rect": [
      7,
      1,
      49,
      65
    ],
    "offset": [
      3.5,
      0
    ],
    "originalSize": [
      56,
      67
    ],
    "capInsets": [
      0,
      0,
      0,
      0
    ]
  }
}