{
  "__type__": "cc.SpriteFrame",
  "content": {
    "name": "452",
    "texture": "0f9752ed-3003-449a-9214-c724405b9e65",
    "atlas": "",
    "rect": [
      1,
      1,
      129,
      165
    ],
    "offset": [
      0,
      0.5
    ],
    "originalSize": [
      131,
      168
    ],
    "capInsets": [
      0,
      0,
      0,
      0
    ]
  }
}