{
  "__type__": "cc.SpriteFrame",
  "content": {
    "name": "Image 211 at frame 9",
    "texture": "f0fa9c12-6d56-46e1-abb2-442ee8c0c518",
    "atlas": "1014a3a5-8850-461a-ac0f-4e47a29e4724",
    "rect": [
      465,
      1,
      40,
      40
    ],
    "offset": [
      0,
      0
    ],
    "originalSize": [
      40,
      40
    ],
    "capInsets": [
      0,
      0,
      0,
      0
    ]
  }
}