{
  "__type__": "cc.SpriteFrame",
  "content": {
    "name": "744",
    "texture": "675331d1-1ed2-46d8-828b-cbe4b7da0c58",
    "atlas": "",
    "rect": [
      1,
      1,
      40,
      45
    ],
    "offset": [
      0,
      0
    ],
    "originalSize": [
      42,
      47
    ],
    "capInsets": [
      0,
      0,
      0,
      0
    ]
  }
}