{
  "__type__": "cc.SpriteFrame",
  "content": {
    "name": "454",
    "texture": "c5bf349d-07ae-49c9-8029-24478e68695b",
    "atlas": "",
    "rect": [
      1,
      1,
      134,
      143
    ],
    "offset": [
      0,
      0
    ],
    "originalSize": [
      136,
      145
    ],
    "capInsets": [
      0,
      0,
      0,
      0
    ]
  }
}