{
  "__type__": "cc.SpriteAtlas",
  "_name": "move.plist",
  "_objFlags": 0,
  "_native": "",
  "_spriteFrames": {
    "Image 35 at frame 9": {
      "__uuid__": "c491617c-91a2-4180-a127-4950069bec02"
    },
    "Image 36 at frame 9": {
      "__uuid__": "eba5e4d0-5128-4ca0-a0db-0b935a794482"
    },
    "Image 37 at frame 9": {
      "__uuid__": "77d58683-7c01-4ad2-9682-e9a556b7070f"
    },
    "Image 38 at frame 9": {
      "__uuid__": "7cb9dc1f-6834-4e3d-accf-97d2449f5af2"
    },
    "Image 39 at frame 9": {
      "__uuid__": "6ed173d2-ea94-4a31-a99c-1ec514b4709c"
    },
    "Image 40 at frame 9": {
      "__uuid__": "d66674bf-9f91-4b21-9e46-6474d8f12de6"
    },
    "Image 41 at frame 9": {
      "__uuid__": "19bef5ca-2bbe-47d0-88a8-c6142c18c0cb"
    },
    "Image 42 at frame 9": {
      "__uuid__": "250e1ddd-7ed4-4da8-8ff3-72dad9ab074b"
    },
    "Image 43 at frame 9": {
      "__uuid__": "52e579bd-9c68-4933-9b03-ba0612975c56"
    },
    "Image 44 at frame 9": {
      "__uuid__": "ec8e36f3-d41e-488a-96cd-b1edbdf45d4d"
    },
    "Image 45 at frame 9": {
      "__uuid__": "597ee804-6134-4c6c-a4b2-80fa03b2a5d6"
    },
    "Image 46 at frame 9": {
      "__uuid__": "e927289c-73e3-4b67-999a-6db9012da38e"
    },
    "Image 47 at frame 9": {
      "__uuid__": "a201b3d0-d4da-4e42-a86e-26b86d6d3b62"
    },
    "Image 48 at frame 9": {
      "__uuid__": "a65bd9d3-c511-467c-82be-cf51a82fddeb"
    },
    "Image 49 at frame 9": {
      "__uuid__": "26dd798c-402d-4875-a389-8a1b5f3bca02"
    },
    "Image 50 at frame 9": {
      "__uuid__": "35f467ed-b059-41e3-9ba6-00f901826eb6"
    },
    "Image 51 at frame 9": {
      "__uuid__": "2d85f2d7-b993-42b7-a2b9-5ec229c35de2"
    },
    "Image 52 at frame 9": {
      "__uuid__": "7037160f-caab-47d7-9f20-4d6d1fa9d27d"
    },
    "Image 53 at frame 9": {
      "__uuid__": "bd7d1d99-f67e-4445-8a17-ab9678763a7e"
    },
    "Image 54 at frame 9": {
      "__uuid__": "d85d3c69-e977-403d-8745-3529bb51db0b"
    }
  }
}