{
  "__type__": "cc.SpriteFrame",
  "content": {
    "name": "waitingroom_bg",
    "texture": "750e7107-dd80-46af-bb43-d4d6d549ada8",
    "atlas": "",
    "rect": [
      0,
      0,
      735,
      663
    ],
    "offset": [
      0,
      0
    ],
    "originalSize": [
      735,
      663
    ],
    "capInsets": [
      0,
      0,
      0,
      0
    ]
  }
}