{
  "__type__": "cc.SpriteFrame",
  "content": {
    "name": "price off",
    "texture": "d708f0b3-61eb-4976-b0af-bb5ebe49d250",
    "atlas": "",
    "rect": [
      0,
      0,
      172,
      172
    ],
    "offset": [
      0,
      0
    ],
    "originalSize": [
      172,
      172
    ],
    "capInsets": [
      0,
      0,
      0,
      0
    ]
  }
}