{
  "__type__": "cc.SpriteFrame",
  "content": {
    "name": "ground1",
    "texture": "009e7ef2-e7e3-4741-b758-4c93cc1705db",
    "atlas": "",
    "rect": [
      0,
      0,
      40,
      40
    ],
    "offset": [
      0,
      0
    ],
    "originalSize": [
      40,
      40
    ],
    "capInsets": [
      0,
      0,
      0,
      0
    ]
  }
}