{
  "__type__": "cc.AnimationClip",
  "_name": "boss_idle",
  "_objFlags": 0,
  "_native": "",
  "_duration": 0.26666666666666666,
  "sample": 60,
  "speed": 0.5,
  "wrapMode": 2,
  "curveData": {
    "comps": {
      "cc.Sprite": {
        "spriteFrame": [
          {
            "frame": 0,
            "value": {
              "__uuid__": "c48685f6-fb3b-4b41-9aed-4842d4a1a46f"
            }
          },
          {
            "frame": 0.08333333333333333,
            "value": {
              "__uuid__": "82b3bff5-db86-44f3-a3a1-ea69be8fb619"
            }
          },
          {
            "frame": 0.16666666666666666,
            "value": {
              "__uuid__": "ab9b2f72-506f-440e-bed9-d9593a19ed7c"
            }
          },
          {
            "frame": 0.25,
            "value": {
              "__uuid__": "70626ed8-2c88-46ef-8964-ac630efc2a9a"
            }
          }
        ]
      }
    }
  },
  "events": []
}