{
  "__type__": "cc.SpriteFrame",
  "content": {
    "name": "751",
    "texture": "6f8fb77a-055a-4907-9666-683cd58cf332",
    "atlas": "",
    "rect": [
      0,
      0,
      40,
      45
    ],
    "offset": [
      0,
      0
    ],
    "originalSize": [
      40,
      45
    ],
    "capInsets": [
      0,
      0,
      0,
      0
    ]
  }
}