{
  "__type__": "cc.SpriteFrame",
  "content": {
    "name": "Image 234 at frame 9",
    "texture": "845a2167-74bf-41d4-8438-ee9230525baa",
    "atlas": "",
    "rect": [
      0,
      0,
      40,
      44
    ],
    "offset": [
      0,
      0
    ],
    "originalSize": [
      40,
      44
    ],
    "capInsets": [
      0,
      0,
      0,
      0
    ]
  }
}