{
  "__type__": "cc.SpriteFrame",
  "content": {
    "name": "Image 228 at frame 9",
    "texture": "197e1306-05ff-4a91-9ff3-c21b25e8419c",
    "atlas": "76c55c0f-12a8-4f45-bffd-6c271483f37d",
    "rect": [
      43,
      1,
      40,
      44
    ],
    "offset": [
      0,
      0
    ],
    "originalSize": [
      40,
      44
    ],
    "capInsets": [
      0,
      0,
      0,
      0
    ]
  }
}