{
  "__type__": "cc.SpriteFrame",
  "content": {
    "name": "Image 168 at frame 9",
    "texture": "6fa3caac-2157-4696-9da3-4342b42aae74",
    "atlas": "",
    "rect": [
      0,
      0,
      41,
      44
    ],
    "offset": [
      0,
      0
    ],
    "originalSize": [
      41,
      44
    ],
    "capInsets": [
      0,
      0,
      0,
      0
    ]
  }
}