{
  "__type__": "cc.SpriteFrame",
  "content": {
    "name": "waiting_bg",
    "texture": "acb71957-0a12-435a-b902-f1bfbcf01c33",
    "atlas": "",
    "rect": [
      0,
      0,
      735,
      663
    ],
    "offset": [
      0,
      0
    ],
    "originalSize": [
      735,
      663
    ],
    "capInsets": [
      0,
      0,
      0,
      0
    ]
  }
}