{
  "__type__": "cc.AnimationClip",
  "_name": "pirate_move_down",
  "_objFlags": 0,
  "_native": "",
  "_duration": 0.35,
  "sample": 60,
  "speed": 1,
  "wrapMode": 2,
  "curveData": {
    "comps": {
      "cc.Sprite": {
        "spriteFrame": [
          {
            "frame": 0,
            "value": {
              "__uuid__": "99ed825d-e3ae-4cd9-8e4a-dbf832b89e36"
            }
          },
          {
            "frame": 0.08333333333333333,
            "value": {
              "__uuid__": "093c8df3-fa22-4ad1-8836-0bb04300324c"
            }
          },
          {
            "frame": 0.16666666666666666,
            "value": {
              "__uuid__": "8383297d-c918-4b26-8422-fb155d2c9759"
            }
          },
          {
            "frame": 0.25,
            "value": {
              "__uuid__": "8bbb6dd3-57f3-490c-824f-3798401a49fe"
            }
          },
          {
            "frame": 0.3333333333333333,
            "value": {
              "__uuid__": "85e0f775-c40b-4d58-afeb-e797393aa57d"
            }
          }
        ]
      }
    }
  },
  "events": []
}