{
  "__type__": "cc.AnimationClip",
  "_name": "pirate_idle_left",
  "_objFlags": 0,
  "_native": "",
  "_duration": 0.016666666666666666,
  "sample": 60,
  "speed": 1,
  "wrapMode": 1,
  "curveData": {
    "comps": {
      "cc.Sprite": {
        "spriteFrame": [
          {
            "frame": 0,
            "value": {
              "__uuid__": "0e8ab2a5-7815-419c-ab11-21c858ea76cd"
            }
          }
        ]
      }
    }
  },
  "events": []
}