{
  "__type__": "cc.AnimationClip",
  "_name": "pirate_move_left",
  "_objFlags": 0,
  "_native": "",
  "_duration": 0.35,
  "sample": 60,
  "speed": 1,
  "wrapMode": 2,
  "curveData": {
    "comps": {
      "cc.Sprite": {
        "spriteFrame": [
          {
            "frame": 0,
            "value": {
              "__uuid__": "0e8ab2a5-7815-419c-ab11-21c858ea76cd"
            }
          },
          {
            "frame": 0.08333333333333333,
            "value": {
              "__uuid__": "707d02c8-9099-4b9c-a1f2-aa065d178cc5"
            }
          },
          {
            "frame": 0.16666666666666666,
            "value": {
              "__uuid__": "976242aa-7a2b-4f87-abaf-8845b6bf0121"
            }
          },
          {
            "frame": 0.25,
            "value": {
              "__uuid__": "1b04ed71-1fa5-4b31-bf50-b146ef116ce2"
            }
          },
          {
            "frame": 0.3333333333333333,
            "value": {
              "__uuid__": "8ab9243a-512c-4c8a-a21e-9d021a2b55db"
            }
          }
        ]
      }
    }
  },
  "events": []
}