{
  "9836134e-b892-4283-b6b2-78b5acf3ed45": {
    "asset": 1588658270023,
    "meta": 1577083950000,
    "relativePath": "effects"
  },
  "f8e6b000-5643-4b86-9080-aa680ce1f599": {
    "asset": 1588658172977,
    "meta": 1577083950000,
    "relativePath": "image"
  },
  "5c3eedba-6c41-4c0c-9ba7-d91f813cbd1c": {
    "asset": 1588658172996,
    "meta": 1577083950000,
    "relativePath": "materials"
  },
  "fc09f9bd-2cce-4605-b630-8145ef809ed6": {
    "asset": 1588658173016,
    "meta": 1577083950000,
    "relativePath": "misc"
  },
  "db019bf7-f71c-4111-98cf-918ea180cb48": {
    "asset": 1588658173138,
    "meta": 1577083950000,
    "relativePath": "model"
  },
  "e39e96e6-6f6e-413f-bcf1-ac7679bb648a": {
    "asset": 1588658173118,
    "meta": 1577083950000,
    "relativePath": "model\\prefab"
  },
  "f6e6dd15-71d1-4ffe-ace7-24fd39942c05": {
    "asset": 1588658173168,
    "meta": 1577083950000,
    "relativePath": "obsolete"
  },
  "f743d2b6-b7ea-4c14-a55b-547ed4d0a045": {
    "asset": 1588658173198,
    "meta": 1577083950000,
    "relativePath": "particle"
  },
  "ae6c6c98-11e4-452f-8758-75f5c6a56e83": {
    "asset": 1588658270128,
    "meta": 1577083950000,
    "relativePath": "prefab"
  },
  "a3ee0214-b432-4865-9666-4a3211814282": {
    "asset": 1588658270122,
    "meta": 1577083950000,
    "relativePath": "prefab\\light"
  },
  "d8afc78c-4eac-4a9f-83dd-67bc70344d33": {
    "asset": 1588658173892,
    "meta": 1577083950000,
    "relativePath": "resources"
  },
  "294c1663-4adf-4a1e-a795-53808011a38a": {
    "asset": 1588658173810,
    "meta": 1577083950000,
    "relativePath": "resources\\effects"
  },
  "bbee2217-c261-49bd-a8ce-708d6bcc3500": {
    "asset": 1588658173886,
    "meta": 1577083950000,
    "relativePath": "resources\\materials"
  },
  "1c9f2900-c91a-49d0-9d73-fcfcf2398ea9": {
    "asset": 1593287268394,
    "meta": 1591868039935,
    "relativePath": "animation"
  },
  "3f688c53-98d1-4b20-8aac-ddce19920f90": {
    "asset": 1591868039936,
    "meta": 1591868061887,
    "relativePath": "animation\\bubble_end.anim"
  },
  "7e069b1d-b97c-454f-85e1-976b0f7451cb": {
    "asset": 1591868039937,
    "meta": 1591868061890,
    "relativePath": "animation\\orangeblock_destroy.anim"
  },
  "51acc47c-f5e2-422c-a646-2552aa6c266b": {
    "asset": 1591868039938,
    "meta": 1591868061901,
    "relativePath": "animation\\player_idle_down.anim"
  },
  "3f56e2d7-6dda-476b-850a-60fae201e5d6": {
    "asset": 1591868039938,
    "meta": 1591868061912,
    "relativePath": "animation\\player_idle_left.anim"
  },
  "225b632c-ba8d-4b68-bd46-474fad719c10": {
    "asset": 1591868039939,
    "meta": 1591868061919,
    "relativePath": "animation\\player_idle_right.anim"
  },
  "6c0dc032-a083-4fff-bede-2ba4bcb740de": {
    "asset": 1591868039940,
    "meta": 1591868061926,
    "relativePath": "animation\\player_idle_up.anim"
  },
  "1aa2d0b9-77be-47df-9f83-550312565767": {
    "asset": 1591868039941,
    "meta": 1591868061938,
    "relativePath": "animation\\player_move_down.anim"
  },
  "001f93fc-c0fd-4e4f-a92f-8bdea6c7e1dd": {
    "asset": 1591868039942,
    "meta": 1591868061945,
    "relativePath": "animation\\player_move_left.anim"
  },
  "a30c45ed-5588-4017-9d87-3c6dfc7e8673": {
    "asset": 1591868039943,
    "meta": 1591868061957,
    "relativePath": "animation\\player_move_right.anim"
  },
  "f41e2381-49a2-43c0-a883-15e3503e1f87": {
    "asset": 1591868039944,
    "meta": 1591868061959,
    "relativePath": "animation\\player_move_up.anim"
  },
  "969ad7b1-42ea-4f14-a04d-92ed4e1cb532": {
    "asset": 1593332437605,
    "meta": 1591868039945,
    "relativePath": "image"
  },
  "c18e130f-9d61-43cd-860b-2843208a1072": {
    "asset": 1593102160604,
    "meta": 1591868039974,
    "relativePath": "image\\bg"
  },
  "a21faa3a-8290-48c4-b2ec-46914a87ba2c": {
    "asset": 1591868039944,
    "meta": 1591868061971,
    "relativePath": "animation\\redblock_destroy.anim"
  },
  "009e7ef2-e7e3-4741-b758-4c93cc1705db": {
    "asset": 1591868039975,
    "meta": 1591868061993,
    "relativePath": "image\\bg\\ground1.png"
  },
  "cba0a777-c3aa-41b6-85e5-7fa124c4567a": {
    "asset": 1591868040012,
    "meta": 1591868062019,
    "relativePath": "image\\bg\\ground2.png"
  },
  "c280d2ab-0f3b-4992-850c-dbf37a3fd4aa": {
    "asset": 1591868040012,
    "meta": 1591868062032,
    "relativePath": "image\\bg\\road1.png"
  },
  "efba2711-7c60-48b8-b2ba-f44b7a33b7a3": {
    "asset": 1591868040013,
    "meta": 1591868062064,
    "relativePath": "image\\bg\\road3.png"
  },
  "e5fe9239-c7ed-4937-9317-ede4cbb3d1d8": {
    "asset": 1591868040013,
    "meta": 1591868062052,
    "relativePath": "image\\bg\\road2.png"
  },
  "0aae7f36-3894-4b67-a5c8-a5e792469ff7": {
    "asset": 1593011793867,
    "meta": 1591868040014,
    "relativePath": "image\\block"
  },
  "bca427d7-594d-468e-ab38-5323694919ef": {
    "asset": 1591868040014,
    "meta": 1591868062083,
    "relativePath": "image\\block\\Bhouse.png"
  },
  "4182c730-7653-4144-95ac-d244d3709f7a": {
    "asset": 1591868040041,
    "meta": 1591868062090,
    "relativePath": "image\\block\\grass.png"
  },
  "85bd0bc0-961e-46cc-acc9-312f33a0dbcb": {
    "asset": 1591868040080,
    "meta": 1591868040042,
    "relativePath": "image\\block\\orange"
  },
  "b6c377d9-e3ae-4855-85bb-621be9766ef7": {
    "asset": 1591868040042,
    "meta": 1591868062118,
    "relativePath": "image\\block\\orange\\Image 220 at frame 9.png"
  },
  "c676ee78-149e-42d1-8a0f-649ffbb4e897": {
    "asset": 1591868040079,
    "meta": 1591868062141,
    "relativePath": "image\\block\\orange\\Image 223 at frame 9.png"
  },
  "c6f6a177-29a8-4e74-9919-2c3afadf323d": {
    "asset": 1591868040042,
    "meta": 1591868062108,
    "relativePath": "image\\block\\move\\moveblock.jpg"
  },
  "8e9bf64d-0bb9-4c37-9251-9af1bf56c5e1": {
    "asset": 1591868040079,
    "meta": 1591868063008,
    "relativePath": "image\\block\\orange\\orangeblock.plist"
  },
  "f8cdee2d-a2fc-485c-8b26-f66176ff6b70": {
    "asset": 1591868040083,
    "meta": 1591868040080,
    "relativePath": "image\\block\\red"
  },
  "0114eeaf-e8f9-4d76-b099-6336d0618eea": {
    "asset": 1591868040079,
    "meta": 1591868062151,
    "relativePath": "image\\block\\orange\\orangeblock.png"
  },
  "fa80d098-5efe-41ec-9f35-7681571d5418": {
    "asset": 1591868040080,
    "meta": 1591868062165,
    "relativePath": "image\\block\\red\\Image 228 at frame 9.png"
  },
  "76c55c0f-12a8-4f45-bffd-6c271483f37d": {
    "asset": 1591868040082,
    "meta": 1591868063056,
    "relativePath": "image\\block\\red\\redblock.plist"
  },
  "845a2167-74bf-41d4-8438-ee9230525baa": {
    "asset": 1591868040081,
    "meta": 1591868062179,
    "relativePath": "image\\block\\red\\Image 234 at frame 9.png"
  },
  "197e1306-05ff-4a91-9ff3-c21b25e8419c": {
    "asset": 1591868040082,
    "meta": 1591868062208,
    "relativePath": "image\\block\\red\\redblock.png"
  },
  "94b09dfa-524f-461f-83ee-bd0d72da6f83": {
    "asset": 1591868040083,
    "meta": 1591868062223,
    "relativePath": "image\\block\\tree.png"
  },
  "8d20c3e1-7eaf-429e-9046-b3ed1e1167be": {
    "asset": 1591868040015,
    "meta": 1591868062197,
    "relativePath": "image\\block\\Rhouse.png"
  },
  "aabc88ab-4a64-4380-8e0c-e52f6b3cb61d": {
    "asset": 1593287329559,
    "meta": 1591868040122,
    "relativePath": "image\\bubble"
  },
  "1014a3a5-8850-461a-ac0f-4e47a29e4724": {
    "asset": 1591868040123,
    "meta": 1591868063140,
    "relativePath": "image\\bubble\\bubble.plist"
  },
  "384409ea-35e6-41dc-ab12-8daac4cafe9d": {
    "asset": 1591868040040,
    "meta": 1591868062234,
    "relativePath": "image\\block\\Yhouse.png"
  },
  "f0fa9c12-6d56-46e1-abb2-442ee8c0c518": {
    "asset": 1591868040124,
    "meta": 1591868062274,
    "relativePath": "image\\bubble\\bubble.png"
  },
  "5a77d44c-13bb-4bce-9031-b2f886aaaf72": {
    "asset": 1591949276321,
    "meta": 1591868040124,
    "relativePath": "image\\character"
  },
  "451315c7-caa3-42c0-9f47-e8b8fee55120": {
    "asset": 1591868040125,
    "meta": 1591868063239,
    "relativePath": "image\\character\\move.plist"
  },
  "98b18721-0e4f-4cec-aa42-52aa4136a6ab": {
    "asset": 1593105326768,
    "meta": 1591868040158,
    "relativePath": "image\\map"
  },
  "c808ba7d-e2bc-435d-a84d-947bac20a799": {
    "asset": 1593333772380,
    "meta": 1591868040159,
    "relativePath": "prefab"
  },
  "8cc023d2-4f4b-46be-9b57-7088780caf6b": {
    "asset": 1591868040125,
    "meta": 1591868062282,
    "relativePath": "image\\character\\move.png"
  },
  "fe620f6c-1312-4666-9307-ab8dba74498d": {
    "asset": 1591868040244,
    "meta": 1591868062429,
    "relativePath": "prefab\\redhouse.prefab"
  },
  "e0b8f4b6-67e7-4c23-9c62-52ca18a80185": {
    "asset": 1593337498228,
    "meta": 1591868040245,
    "relativePath": "scene"
  },
  "fa58230a-d838-4bb6-a4eb-c77136559d07": {
    "asset": 1593344492692,
    "meta": 1591868040247,
    "relativePath": "script"
  },
  "00f6e7dd-434a-4b97-a485-66c4a3df1960": {
    "asset": 1591868040250,
    "meta": 1591868062718,
    "relativePath": "script\\flow.ts"
  },
  "6cce1d49-74aa-4e56-9432-c2c4dfe18d6d": {
    "asset": 1593292633446,
    "meta": 1593292633458,
    "relativePath": "animation\\player_in_bubble.anim"
  },
  "dac277be-ceee-4bc7-825c-aa874258f413": {
    "asset": 1591944895706,
    "meta": 1591944905036,
    "relativePath": "image\\bubble\\player_in_bubble.png"
  },
  "07da75a7-fd54-4bf1-ae39-db8d91e2ff19": {
    "asset": 1591949276320,
    "meta": 1591949276354,
    "relativePath": "image\\character\\Image 107 at frame 9.png"
  },
  "234bd406-c45e-448c-af3d-2792a057e935": {
    "asset": 1591949849488,
    "meta": 1591949849503,
    "relativePath": "animation\\bubble_explode.anim"
  },
  "8ce98c28-dcb3-4a1b-9467-50cc17133967": {
    "asset": 1591949470253,
    "meta": 1591949470276,
    "relativePath": "image\\bubble\\Image 115 at frame 9.png"
  },
  "20e4562d-4ca4-45fb-9058-722e95f87d93": {
    "asset": 1593102160609,
    "meta": 1591952390205,
    "relativePath": "image\\win"
  },
  "2f2297ad-f412-4ff2-968e-44fad7acfab4": {
    "asset": 1593102160608,
    "meta": 1591953044778,
    "relativePath": "image\\lose"
  },
  "33d81bb1-375f-41b2-acc7-572baf93f830": {
    "asset": 1591954035733,
    "meta": 1591954217564,
    "relativePath": "script\\player_in_bubble.ts"
  },
  "aaa70f49-1253-452a-ae53-6d77636912d3": {
    "asset": 1592978537417,
    "meta": 1592978539565,
    "relativePath": "script\\firebase.js"
  },
  "ab285038-1eaf-4a7f-8263-bb239786fde9": {
    "asset": 1593102160601,
    "meta": 1592985880300,
    "relativePath": "image\\bg\\boss1"
  },
  "80b6684f-fd85-4ad9-a449-6e0324be48b1": {
    "asset": 1592995811996,
    "meta": 1592995442964,
    "relativePath": "image\\item"
  },
  "339a8566-deef-4f32-9208-bcc4707457d3": {
    "asset": 1592995486141,
    "meta": 1592995812015,
    "relativePath": "image\\item\\add_num.png"
  },
  "b3379052-1c83-4641-8520-af0d5e5f9d4b": {
    "asset": 1592995500683,
    "meta": 1592995801214,
    "relativePath": "image\\item\\add_power.png"
  },
  "08895485-c999-4d31-9e50-9f759285acd4": {
    "asset": 1592995503992,
    "meta": 1592995806424,
    "relativePath": "image\\item\\add_speed.png"
  },
  "87c579e7-0b5a-4242-9184-fc18e6a4ce94": {
    "asset": 1593005985383,
    "meta": 1593005989003,
    "relativePath": "script\\item.ts"
  },
  "f039afeb-e296-458a-b0cf-d40b6e7dd3dc": {
    "asset": 1593006248437,
    "meta": 1593006248445,
    "relativePath": "prefab\\add_num.prefab"
  },
  "98a431fc-1975-4be3-b562-7e344252a411": {
    "asset": 1593006336394,
    "meta": 1593006336413,
    "relativePath": "prefab\\add_power.prefab"
  },
  "305d0ed6-4559-4e67-8de9-063fcbc0205f": {
    "asset": 1593006386163,
    "meta": 1593006386176,
    "relativePath": "prefab\\add_speed.prefab"
  },
  "aabc2e11-2be4-4cdc-9b03-e482e4832959": {
    "asset": 1593011806718,
    "meta": 1593011806749,
    "relativePath": "animation\\moveblock_destroy.anim"
  },
  "206ef942-e767-4301-80fa-d749fbe1d2a7": {
    "asset": 1593011798743,
    "meta": 1593011788128,
    "relativePath": "image\\block\\move"
  },
  "6fa3caac-2157-4696-9da3-4342b42aae74": {
    "asset": 1593011798740,
    "meta": 1593011798765,
    "relativePath": "image\\block\\move\\Image 168 at frame 9.png"
  },
  "64e33819-9e56-49b9-8152-f2fc1dea753b": {
    "asset": 1593012118912,
    "meta": 1593012118937,
    "relativePath": "prefab\\flow_left.prefab"
  },
  "41eacc08-9287-4aef-b5ab-d035123337db": {
    "asset": 1593012118947,
    "meta": 1593012119024,
    "relativePath": "prefab\\flow_right_end.prefab"
  },
  "86d88891-1ee6-4641-8525-b1a6445ce6c7": {
    "asset": 1593012119040,
    "meta": 1593012119056,
    "relativePath": "prefab\\flow_up.prefab"
  },
  "d26a837c-70d6-4a4c-b24c-978174b452f6": {
    "asset": 1593012119059,
    "meta": 1593012119069,
    "relativePath": "prefab\\flow_up_end.prefab"
  },
  "49381be9-dd71-4efa-ae6e-f1362c02824e": {
    "asset": 1593012119071,
    "meta": 1593012119089,
    "relativePath": "prefab\\flow_down.prefab"
  },
  "41d9933f-73dd-4ca1-99f9-28ed9fcbb8d1": {
    "asset": 1593012119097,
    "meta": 1593012119111,
    "relativePath": "prefab\\flow_down_end.prefab"
  },
  "7d26b31b-038a-40d0-81b9-41530eb12f46": {
    "asset": 1593012119121,
    "meta": 1593012119131,
    "relativePath": "prefab\\flow_left_end.prefab"
  },
  "c15d6f46-152f-4a12-a216-35726cb5f5b9": {
    "asset": 1593012119233,
    "meta": 1593012119249,
    "relativePath": "prefab\\flow_right.prefab"
  },
  "2c6fffeb-c9cb-4143-b0f1-34542fbe19dd": {
    "asset": 1593022123109,
    "meta": 1593022131480,
    "relativePath": "image\\bg\\bg_frame.png"
  },
  "57d4b6d8-bc42-4070-a5be-b137d94174db": {
    "asset": 1593022628072,
    "meta": 1593022628089,
    "relativePath": "prefab\\player_in_bubble.prefab"
  },
  "d30dc404-3619-4af6-8860-26934f167058": {
    "asset": 1593032645989,
    "meta": 1593032653312,
    "relativePath": "script\\flow_end.ts"
  },
  "896ce5b9-bd5d-44d8-80be-b51bf96b0c0c": {
    "asset": 1591953050312,
    "meta": 1593102220076,
    "relativePath": "image\\lose\\Image 565 at frame 39.jpg"
  },
  "30aa051d-9e27-4f39-9adb-d5c59cd80b9d": {
    "asset": 1592985764618,
    "meta": 1593102220092,
    "relativePath": "image\\bg\\boss1\\ground1.jpg"
  },
  "b4c8a6b0-5841-4772-a807-d6137be0ab00": {
    "asset": 1591953052477,
    "meta": 1593102220098,
    "relativePath": "image\\lose\\Image 566 at frame 39.jpg"
  },
  "6fc3083a-b616-45fd-b305-97b1403115aa": {
    "asset": 1591952411571,
    "meta": 1593102220120,
    "relativePath": "image\\win\\Image 562 at frame 39.jpg"
  },
  "2929b7f5-6c7d-4506-8ad0-cf35166fef7d": {
    "asset": 1591953054459,
    "meta": 1593102220127,
    "relativePath": "image\\lose\\Image 567 at frame 39.png"
  },
  "83886d60-db41-4f92-bb02-936496dbf471": {
    "asset": 1591952414158,
    "meta": 1593102220142,
    "relativePath": "image\\win\\Image 563 at frame 39.jpg"
  },
  "209c5ef6-1cdd-4a8c-927a-937d73879433": {
    "asset": 1591952416335,
    "meta": 1593102220148,
    "relativePath": "image\\win\\Image 564 at frame 39.png"
  },
  "31f60522-37ce-4961-aa64-6aac69261995": {
    "asset": 1593369600903,
    "meta": 1593369600932,
    "relativePath": "scene\\boss1.fire"
  },
  "1cdad921-e311-4491-b790-53bd0334de72": {
    "asset": 1593332437583,
    "meta": 1593102160604,
    "relativePath": "image\\lobby"
  },
  "f0ead6e3-64b8-41c1-867c-4792660432e0": {
    "asset": 1593107631819,
    "meta": 1593102160610,
    "relativePath": "prefab\\lobby"
  },
  "be136728-de00-43ec-ad11-abc5e7dfc781": {
    "asset": 1593102160603,
    "meta": 1593102220388,
    "relativePath": "image\\bg\\lodIn_bg.jpg"
  },
  "1383c3f5-1372-4c57-a199-13a169206cfd": {
    "asset": 1593105326741,
    "meta": 1593105334254,
    "relativePath": "image\\map\\bnb_map.tmx"
  },
  "45d8d58a-fbef-467d-87ee-a54028023fc2": {
    "asset": 1593105320704,
    "meta": 1593105334254,
    "relativePath": "image\\map\\boss1.tmx"
  },
  "7adbe5d3-44da-48c6-9b0a-096a2a2a05cf": {
    "asset": 1593105668260,
    "meta": 1593105668285,
    "relativePath": "image\\lobby\\room.jpg"
  },
  "45da954e-dd60-4a09-9172-71f323f0b995": {
    "asset": 1593105690091,
    "meta": 1593105690119,
    "relativePath": "image\\lobby\\lobby_frame.jpg"
  },
  "962dc052-6293-41e3-adbe-2327692db7d2": {
    "asset": 1593105692823,
    "meta": 1593105692865,
    "relativePath": "image\\lobby\\button.png"
  },
  "86d326f4-438e-478e-8bda-5123738c066d": {
    "asset": 1593107631812,
    "meta": 1593107631819,
    "relativePath": "prefab\\lobby\\room.prefab"
  },
  "8a143b65-a331-48a5-812e-9bfda8e1bfb8": {
    "asset": 1593110900823,
    "meta": 1593110900838,
    "relativePath": "prefab\\redblock.prefab"
  },
  "b628c7a2-08ae-4073-92ac-e6fb5032dab0": {
    "asset": 1593110941195,
    "meta": 1593110941212,
    "relativePath": "prefab\\orangeblock.prefab"
  },
  "eb4fd87e-3cec-4a7a-86fd-5311729d336d": {
    "asset": 1593110999786,
    "meta": 1593110999808,
    "relativePath": "prefab\\move_block.prefab"
  },
  "89e1987a-d501-4f47-a98d-ba7e3da9469f": {
    "asset": 1593160289035,
    "meta": 1593160289057,
    "relativePath": "prefab\\tree.prefab"
  },
  "0d3b8abd-cde2-47d3-bcee-4f6d95d80811": {
    "asset": 1593171421812,
    "meta": 1593171435178,
    "relativePath": "script\\change_scene.ts"
  },
  "a2ab896e-d79a-4a21-b5a1-8d24773723cf": {
    "asset": 1593171661371,
    "meta": 1593171661392,
    "relativePath": "prefab\\grass.prefab"
  },
  "de51fb8c-528a-4023-955d-b1eabc06143a": {
    "asset": 1593171926599,
    "meta": 1593171927732,
    "relativePath": "script\\grass.ts"
  },
  "750a2c6c-b850-48e4-b5e6-63a7daabe1b7": {
    "asset": 1593172044672,
    "meta": 1593172044689,
    "relativePath": "prefab\\flow_center.prefab"
  },
  "a2b63e2d-84dd-46d2-aa25-8c60d82bc57c": {
    "asset": 1593172082856,
    "meta": 1593172082883,
    "relativePath": "prefab\\bubble.prefab"
  },
  "e6edbd25-2c5a-45c6-8799-2e2ade77c235": {
    "asset": 1593172109803,
    "meta": 1593172109820,
    "relativePath": "prefab\\otherBubble.prefab"
  },
  "74cd0aa0-638b-410d-9936-b1ea73bf6365": {
    "asset": 1593174089199,
    "meta": 1593174096096,
    "relativePath": "script\\roomowner.ts"
  },
  "e1b783f2-1ce2-4f7e-9fda-a1f57339f369": {
    "asset": 1593183457552,
    "meta": 1593182906213,
    "relativePath": "image\\boss1"
  },
  "5ae5a23f-5730-4038-aaa2-9cf7518c0eb3": {
    "asset": 1593250515909,
    "meta": 1593182921355,
    "relativePath": "image\\boss1\\boss"
  },
  "c3f9bb42-0c14-4c03-bae9-ac5ae6017f12": {
    "asset": 1593183012687,
    "meta": 1593183021493,
    "relativePath": "image\\boss1\\boss\\boss.png"
  },
  "3732c28f-5f73-482d-8a2f-91eb48555dd1": {
    "asset": 1593250586182,
    "meta": 1593183103088,
    "relativePath": "animation\\boss1"
  },
  "9c88c533-c49b-4491-977c-408ec07de79e": {
    "asset": 1593183124283,
    "meta": 1593183124309,
    "relativePath": "image\\boss1\\boss\\252.png"
  },
  "a8646115-f7d6-4a70-a82c-7695f420c373": {
    "asset": 1593183129919,
    "meta": 1593183129995,
    "relativePath": "image\\boss1\\boss\\254.png"
  },
  "03099a1a-5626-4bf6-80a5-21d6564c41cd": {
    "asset": 1593183131734,
    "meta": 1593183131767,
    "relativePath": "image\\boss1\\boss\\256.png"
  },
  "26791f7d-bd6b-4c01-9f7d-1d9dc5edfb5a": {
    "asset": 1593183215748,
    "meta": 1593183215762,
    "relativePath": "animation\\boss1\\boss_idle.anim"
  },
  "b42a3466-22e7-4cd3-a784-11a25b389762": {
    "asset": 1593197653119,
    "meta": 1593183285427,
    "relativePath": "script\\boss1"
  },
  "6172d76d-7298-4b35-b4ba-41f46dd90007": {
    "asset": 1593185642257,
    "meta": 1593183454126,
    "relativePath": "image\\boss1\\block"
  },
  "2ed441f0-fb09-4066-93fe-655f8c6ed864": {
    "asset": 1593183503457,
    "meta": 1593183503481,
    "relativePath": "image\\boss1\\block\\793.png"
  },
  "593e65d4-792f-4007-8704-e824967bad5a": {
    "asset": 1593197934491,
    "meta": 1593183798430,
    "relativePath": "prefab\\boss1"
  },
  "a035a43d-bcc2-4f36-949c-41f1be27cc7a": {
    "asset": 1593183802679,
    "meta": 1593183802739,
    "relativePath": "prefab\\boss1\\block_turtle.prefab"
  },
  "08dbbec8-f815-4571-ab09-b39f5e302c3d": {
    "asset": 1593183892121,
    "meta": 1593183892197,
    "relativePath": "image\\boss1\\block\\789.png"
  },
  "e98a3550-2ef3-4ce4-aed3-4b3bcd7ee402": {
    "asset": 1593183955335,
    "meta": 1593183955358,
    "relativePath": "prefab\\boss1\\block_blue.prefab"
  },
  "81bcb91d-9813-4e0b-a661-e44291b79373": {
    "asset": 1593184032862,
    "meta": 1593184032932,
    "relativePath": "image\\boss1\\block\\791.png"
  },
  "3bf1d417-e810-4c33-bb99-0ee060aaa174": {
    "asset": 1593184060832,
    "meta": 1593184060892,
    "relativePath": "prefab\\boss1\\block_green.prefab"
  },
  "7fb7926f-a3e1-4655-9ea2-432363b875a0": {
    "asset": 1593185259808,
    "meta": 1593185259827,
    "relativePath": "prefab\\boss1\\bubble.prefab"
  },
  "675331d1-1ed2-46d8-828b-cbe4b7da0c58": {
    "asset": 1593185642121,
    "meta": 1593185642286,
    "relativePath": "image\\boss1\\block\\744.png"
  },
  "2100361a-0bdc-4fd0-9a58-f4d504afe04a": {
    "asset": 1593185642121,
    "meta": 1593185642294,
    "relativePath": "image\\boss1\\block\\747.png"
  },
  "6f8fb77a-055a-4907-9666-683cd58cf332": {
    "asset": 1593185642121,
    "meta": 1593185642312,
    "relativePath": "image\\boss1\\block\\751.png"
  },
  "ba23c552-9ec2-445b-b895-d0d7be9e9458": {
    "asset": 1593185642121,
    "meta": 1593185642326,
    "relativePath": "image\\boss1\\block\\749.png"
  },
  "1820753a-d023-41f4-9d62-4b9d72ae361d": {
    "asset": 1593185642121,
    "meta": 1593185642372,
    "relativePath": "image\\boss1\\block\\755.png"
  },
  "47d21528-ae89-4fdf-ab8a-dbd0178c7b5a": {
    "asset": 1593185642142,
    "meta": 1593185642423,
    "relativePath": "image\\boss1\\block\\753.png"
  },
  "b5c0266a-75e0-48c6-86fb-9ea5c6ba455f": {
    "asset": 1593185642126,
    "meta": 1593185642476,
    "relativePath": "image\\boss1\\block\\759.png"
  },
  "bfd65d2d-cee5-4787-94d3-428e484898a0": {
    "asset": 1593185642155,
    "meta": 1593185642477,
    "relativePath": "image\\boss1\\block\\757.png"
  },
  "e34bb4fe-36f5-4d4b-a1c8-975aea97f0ac": {
    "asset": 1593185756180,
    "meta": 1593185756237,
    "relativePath": "animation\\boss1\\normal_block_destroy.anim"
  },
  "766f2448-6e7f-4fe2-af57-e85e81282cd1": {
    "asset": 1593185863487,
    "meta": 1593185865639,
    "relativePath": "script\\block.ts"
  },
  "3615a9ee-dec3-4203-818e-d2bbae39fbb8": {
    "asset": 1593187765353,
    "meta": 1593187767551,
    "relativePath": "script\\boss1\\block_in_boss.ts"
  },
  "ff831871-5abc-48e9-a5e6-32653ca72af7": {
    "asset": 1593187642556,
    "meta": 1593187767552,
    "relativePath": "script\\item_gen.ts"
  },
  "5bfb66d8-ff1b-47be-90e8-d34e749e1071": {
    "asset": 1593187832026,
    "meta": 1593187832086,
    "relativePath": "prefab\\boss1\\normal_block.prefab"
  },
  "4408f93f-be9d-4dc7-a1ee-d11d904eff3d": {
    "asset": 1593197934467,
    "meta": 1593197934491,
    "relativePath": "prefab\\boss1\\boss_bubble.prefab"
  },
  "83347096-e152-47f9-a18b-849e73cc0482": {
    "asset": 1593248785789,
    "meta": 1593248785891,
    "relativePath": "image\\boss1\\boss\\363.png"
  },
  "128e0132-d733-4d03-9471-fe07d9ad2edb": {
    "asset": 1593248785789,
    "meta": 1593248785900,
    "relativePath": "image\\boss1\\boss\\359.png"
  },
  "d23897c7-de07-4335-a4bf-4906c799e283": {
    "asset": 1593248785789,
    "meta": 1593248785919,
    "relativePath": "image\\boss1\\boss\\361.png"
  },
  "81a3116f-3c68-4bd5-b57d-e6087bdb413a": {
    "asset": 1593248785789,
    "meta": 1593248785927,
    "relativePath": "image\\boss1\\boss\\357.png"
  },
  "73cd870f-b0ee-4303-92ea-093b3d6675b1": {
    "asset": 1593248785790,
    "meta": 1593248785946,
    "relativePath": "image\\boss1\\boss\\365.png"
  },
  "f064f27a-f79e-4e0e-a172-244824dc89a0": {
    "asset": 1593248846114,
    "meta": 1593248846131,
    "relativePath": "animation\\boss1\\boss_hurt.anim"
  },
  "9253165c-c1d9-42e8-8deb-b2cac9a78174": {
    "asset": 1593249181840,
    "meta": 1593249181869,
    "relativePath": "image\\boss1\\boss\\266.png"
  },
  "defa3ec4-a997-4852-b258-597075322cf3": {
    "asset": 1593249259135,
    "meta": 1593249259174,
    "relativePath": "image\\boss1\\boss\\263.png"
  },
  "175986c4-494d-41a8-ba4e-4c2060db52d3": {
    "asset": 1593250569744,
    "meta": 1593250513641,
    "relativePath": "image\\boss1\\boss\\die"
  },
  "6f8f08e2-f251-4fb8-a32b-bdb15a950b19": {
    "asset": 1593250569373,
    "meta": 1593250569774,
    "relativePath": "image\\boss1\\boss\\die\\411.png"
  },
  "0b2aa4ea-5aa3-42c5-a122-7e27e46569a4": {
    "asset": 1593250569373,
    "meta": 1593250569781,
    "relativePath": "image\\boss1\\boss\\die\\403.png"
  },
  "3d1da61b-e2a7-43a7-8c66-b0240425838e": {
    "asset": 1593250569374,
    "meta": 1593250569798,
    "relativePath": "image\\boss1\\boss\\die\\413.png"
  },
  "6697a7d9-038b-47a0-8ae4-5c2f889dfedf": {
    "asset": 1593250569373,
    "meta": 1593250569811,
    "relativePath": "image\\boss1\\boss\\die\\409.png"
  },
  "fb4f7b16-045d-4256-b483-f69ab05c62e4": {
    "asset": 1593250569374,
    "meta": 1593250569828,
    "relativePath": "image\\boss1\\boss\\die\\425.png"
  },
  "b6c45750-a157-4853-8e72-404fccbaf25b": {
    "asset": 1593250569374,
    "meta": 1593250569840,
    "relativePath": "image\\boss1\\boss\\die\\417.png"
  },
  "6a2f4a8f-e7c5-42b3-883a-cb1fa1f62483": {
    "asset": 1593250569374,
    "meta": 1593250569861,
    "relativePath": "image\\boss1\\boss\\die\\423.png"
  },
  "89003a88-f8e2-4f20-bc1a-9167ad817446": {
    "asset": 1593250569374,
    "meta": 1593250569873,
    "relativePath": "image\\boss1\\boss\\die\\415.png"
  },
  "07806731-d9e0-4dde-b8f7-e3458f3b020f": {
    "asset": 1593250569374,
    "meta": 1593250569895,
    "relativePath": "image\\boss1\\boss\\die\\429.png"
  },
  "ec16bc35-6542-45a4-b17d-8f38e47296c7": {
    "asset": 1593250569374,
    "meta": 1593250569908,
    "relativePath": "image\\boss1\\boss\\die\\427.png"
  },
  "81f4f12f-9536-4f97-856d-699be7ebfb87": {
    "asset": 1593250569374,
    "meta": 1593250569932,
    "relativePath": "image\\boss1\\boss\\die\\421.png"
  },
  "279135ae-941a-4f60-b0c8-82c60cdddf96": {
    "asset": 1593250569374,
    "meta": 1593250569945,
    "relativePath": "image\\boss1\\boss\\die\\437.png"
  },
  "92b8d2fe-52a6-4693-bf10-2187535b9584": {
    "asset": 1593250569374,
    "meta": 1593250569964,
    "relativePath": "image\\boss1\\boss\\die\\431.png"
  },
  "ae426a63-0c39-4c56-8139-019ef99f88d0": {
    "asset": 1593250569374,
    "meta": 1593250569976,
    "relativePath": "image\\boss1\\boss\\die\\433.png"
  },
  "ab6a029e-5398-4b27-941c-dcd712f32e2b": {
    "asset": 1593250569374,
    "meta": 1593250569997,
    "relativePath": "image\\boss1\\boss\\die\\443.png"
  },
  "9a592d5b-6acf-4d0f-970e-013f5471a058": {
    "asset": 1593250569374,
    "meta": 1593250570010,
    "relativePath": "image\\boss1\\boss\\die\\441.png"
  },
  "6e4a864e-e60a-498b-a00f-9ac8085b77ea": {
    "asset": 1593250569375,
    "meta": 1593250570032,
    "relativePath": "image\\boss1\\boss\\die\\435.png"
  },
  "d56f5cd3-d964-4329-af3c-035f8316a7b6": {
    "asset": 1593250569375,
    "meta": 1593250570045,
    "relativePath": "image\\boss1\\boss\\die\\445.png"
  },
  "788bc807-bcb4-49fe-9070-ed3f751c0cf9": {
    "asset": 1593250569375,
    "meta": 1593250570069,
    "relativePath": "image\\boss1\\boss\\die\\449.png"
  },
  "c5bf349d-07ae-49c9-8029-24478e68695b": {
    "asset": 1593250569375,
    "meta": 1593250570078,
    "relativePath": "image\\boss1\\boss\\die\\454.png"
  },
  "a78b348d-bbac-4090-acb0-3da1ad354af1": {
    "asset": 1593250569375,
    "meta": 1593250570100,
    "relativePath": "image\\boss1\\boss\\die\\456.png"
  },
  "0f9752ed-3003-449a-9214-c724405b9e65": {
    "asset": 1593250569375,
    "meta": 1593250570106,
    "relativePath": "image\\boss1\\boss\\die\\452.png"
  },
  "d6fa3c3f-45e7-477e-a260-ebc89176ea6f": {
    "asset": 1593250569375,
    "meta": 1593250570129,
    "relativePath": "image\\boss1\\boss\\die\\447.png"
  },
  "d6bf9cf5-b56b-4e4e-b463-f98cac59af83": {
    "asset": 1593250569375,
    "meta": 1593250570142,
    "relativePath": "image\\boss1\\boss\\die\\439.png"
  },
  "32486840-4ab7-4827-b12f-3a317c92c860": {
    "asset": 1593250569375,
    "meta": 1593250570163,
    "relativePath": "image\\boss1\\boss\\die\\460.png"
  },
  "f14ce713-4cd0-47ba-bb75-504d1dca05d1": {
    "asset": 1593250569375,
    "meta": 1593250570175,
    "relativePath": "image\\boss1\\boss\\die\\458.png"
  },
  "f5903508-4d5b-4607-b079-0aaa79729cde": {
    "asset": 1593250569375,
    "meta": 1593250570195,
    "relativePath": "image\\boss1\\boss\\die\\462.png"
  },
  "bd6f00f6-c2a2-42c2-bb10-bc4c6f904f60": {
    "asset": 1593250569375,
    "meta": 1593250570208,
    "relativePath": "image\\boss1\\boss\\die\\470.png"
  },
  "d817be4a-4185-4071-aa74-a6d76cc511bf": {
    "asset": 1593250569375,
    "meta": 1593250570223,
    "relativePath": "image\\boss1\\boss\\die\\419.png"
  },
  "dee35320-8454-4662-b78e-cb6c8286cacf": {
    "asset": 1593250569375,
    "meta": 1593250570250,
    "relativePath": "image\\boss1\\boss\\die\\468.png"
  },
  "747da21b-5170-4fc1-ba6d-3df3d4b9a8b9": {
    "asset": 1593250569375,
    "meta": 1593250570263,
    "relativePath": "image\\boss1\\boss\\die\\464.png"
  },
  "6c1eb6b4-44af-44f4-9033-e5264ae7d163": {
    "asset": 1593250569375,
    "meta": 1593250570285,
    "relativePath": "image\\boss1\\boss\\die\\472.png"
  },
  "989f34d0-b296-4106-b5aa-ef8755feffd6": {
    "asset": 1593250569375,
    "meta": 1593250570377,
    "relativePath": "image\\boss1\\boss\\die\\474.png"
  },
  "cbbd541e-4a17-4e45-af09-b2d3fbc505bd": {
    "asset": 1593250569375,
    "meta": 1593250570396,
    "relativePath": "image\\boss1\\boss\\die\\476.png"
  },
  "d73f10da-f978-4b46-a03d-6ec36db1f4ed": {
    "asset": 1593250569376,
    "meta": 1593250570405,
    "relativePath": "image\\boss1\\boss\\die\\466.png"
  },
  "448acc8c-81dc-4a15-ab8b-3e5e0237f170": {
    "asset": 1593250569376,
    "meta": 1593250570441,
    "relativePath": "image\\boss1\\boss\\die\\478.png"
  },
  "471e787c-76bf-4ae0-8bdd-f5e82305c1c7": {
    "asset": 1593250569376,
    "meta": 1593250570456,
    "relativePath": "image\\boss1\\boss\\die\\486.png"
  },
  "acf0b8a3-6c0c-4a78-bc3d-661c2f6ddb16": {
    "asset": 1593250569376,
    "meta": 1593250570474,
    "relativePath": "image\\boss1\\boss\\die\\488.png"
  },
  "3f642628-f5a3-4896-b6bf-8080adfbe13c": {
    "asset": 1593250569376,
    "meta": 1593250570484,
    "relativePath": "image\\boss1\\boss\\die\\405.png"
  },
  "7940bf2b-98d8-42d8-ab30-108f5953dffb": {
    "asset": 1593250569376,
    "meta": 1593250570497,
    "relativePath": "image\\boss1\\boss\\die\\407.png"
  },
  "206ea7b8-6ec7-474c-8b4f-32244c34c950": {
    "asset": 1593250569391,
    "meta": 1593250570505,
    "relativePath": "image\\boss1\\boss\\die\\484.png"
  },
  "46cffb2c-9cbc-4382-b509-d32c49f4dc49": {
    "asset": 1593250569391,
    "meta": 1593250570524,
    "relativePath": "image\\boss1\\boss\\die\\480.png"
  },
  "5794b69b-3e46-456a-b293-ed9f61911f7a": {
    "asset": 1593250569393,
    "meta": 1593250570535,
    "relativePath": "image\\boss1\\boss\\die\\482.png"
  },
  "93681956-464e-43af-9efc-d32797902ffb": {
    "asset": 1593250737971,
    "meta": 1593250737987,
    "relativePath": "animation\\boss1\\boss_die.anim"
  },
  "f833aff5-93cf-45d8-ac75-0e79b2357f2d": {
    "asset": 1593287370526,
    "meta": 1593287370577,
    "relativePath": "animation\\reborn_from_bubble.anim"
  },
  "8e037617-71a2-4b2e-8d41-61f347c61d1e": {
    "asset": 1593287329560,
    "meta": 1593287329607,
    "relativePath": "image\\bubble\\Image 114 at frame 9.png"
  },
  "62294c22-937e-4992-aa9d-9e9e48d49bd9": {
    "asset": 1593291808500,
    "meta": 1593291816970,
    "relativePath": "script\\Other.ts"
  },
  "9ca1a92a-fda2-44ca-a2ac-902e617c4c93": {
    "asset": 1593332437582,
    "meta": 1593332472090,
    "relativePath": "image\\lobby\\圖片1.png"
  },
  "422b4b81-3eb9-4389-8f8e-b41c17f74ef7": {
    "asset": 1593332437582,
    "meta": 1593332472106,
    "relativePath": "image\\lobby\\報報王icon.png"
  },
  "e83efd02-0c74-4bf2-b9e8-88308feeca1a": {
    "asset": 1593332437581,
    "meta": 1593332472128,
    "relativePath": "image\\lobby\\lobby.png"
  },
  "be771a15-b8b1-4f68-8d75-f2b7e1ab8883": {
    "asset": 1593332437604,
    "meta": 1593332437584,
    "relativePath": "image\\shop"
  },
  "f00fe8b7-5aaf-42f7-bdfd-06d1f7c6aa73": {
    "asset": 1593332437579,
    "meta": 1593332472141,
    "relativePath": "image\\lobby\\dec.png"
  },
  "f0aa3ffa-7403-422a-af80-f6b6c79fd66c": {
    "asset": 1593332437585,
    "meta": 1593332472159,
    "relativePath": "image\\shop\\bg.jpg"
  },
  "e8f747cd-70f6-410b-85b9-79dc036f8b23": {
    "asset": 1593332437604,
    "meta": 1593332472170,
    "relativePath": "image\\shop\\售罄.png"
  },
  "ab8b1497-a88d-483f-8e00-7fb13538807e": {
    "asset": 1593332437586,
    "meta": 1593332472189,
    "relativePath": "image\\shop\\bg.png"
  },
  "d0e1b665-c0a8-4538-b53a-104fe0cd4f18": {
    "asset": 1593332437588,
    "meta": 1593332472228,
    "relativePath": "image\\shop\\bg2.png"
  },
  "28bf4097-6dfa-41f9-91c5-f7fe5b908f32": {
    "asset": 1593332437590,
    "meta": 1593332472250,
    "relativePath": "image\\shop\\bg5.png"
  },
  "5ae4977c-9b04-4598-b44a-9533175571ee": {
    "asset": 1593332437589,
    "meta": 1593332472257,
    "relativePath": "image\\shop\\bg4.png"
  },
  "f09c2b7f-a5e1-41bc-9eb8-d4a4e1f9f5be": {
    "asset": 1593332437594,
    "meta": 1593332437591,
    "relativePath": "image\\shop\\good"
  },
  "9241c4c6-513a-43af-a5f9-40b841ca836e": {
    "asset": 1593332437592,
    "meta": 1593332472292,
    "relativePath": "image\\shop\\good\\pin.png"
  },
  "312f0278-9ba1-4319-929c-b3d7fbd1d392": {
    "asset": 1593332437591,
    "meta": 1593332472305,
    "relativePath": "image\\shop\\good\\dec2.png"
  },
  "c3462c85-dd9d-43ca-b84a-52cff05b2493": {
    "asset": 1593332437593,
    "meta": 1593332472319,
    "relativePath": "image\\shop\\good\\pin.prefab"
  },
  "ca5fe275-1e5d-4da1-adb4-8a99bb859829": {
    "asset": 1593332437594,
    "meta": 1593332472339,
    "relativePath": "image\\shop\\good\\pirate skin.png"
  },
  "c5e05938-1f3c-47b8-9e80-86c3045f4a37": {
    "asset": 1593332437595,
    "meta": 1593332472345,
    "relativePath": "image\\shop\\lobby_btn.png"
  },
  "d7940ad5-0f1e-48ec-81e8-622186f473f4": {
    "asset": 1593332437596,
    "meta": 1593332472397,
    "relativePath": "image\\shop\\money_form.png"
  },
  "c01f4d24-583f-4fbe-ac13-a5eecb1db11b": {
    "asset": 1593332437597,
    "meta": 1593332472409,
    "relativePath": "image\\shop\\pin_form.png"
  },
  "d708f0b3-61eb-4976-b0af-bb5ebe49d250": {
    "asset": 1593332437598,
    "meta": 1593332472432,
    "relativePath": "image\\shop\\price off.png"
  },
  "73c654e9-4d15-4953-8f6c-66b9792723ad": {
    "asset": 1593332437599,
    "meta": 1593332472445,
    "relativePath": "image\\shop\\question mark.png"
  },
  "31b14278-912a-42fa-8d84-8f7f145fb9da": {
    "asset": 1593332437600,
    "meta": 1593332472466,
    "relativePath": "image\\shop\\shop1.png"
  },
  "ba5ef41a-58ea-44fb-bc9f-60bbf75661da": {
    "asset": 1593332437601,
    "meta": 1593332472474,
    "relativePath": "image\\shop\\stall.jpg"
  },
  "b1719d1c-258c-42c2-865f-000368d66906": {
    "asset": 1593332437602,
    "meta": 1593332472489,
    "relativePath": "image\\shop\\stall.prefab"
  },
  "59e008a2-a109-412f-8a87-b3113e23fe57": {
    "asset": 1593332437619,
    "meta": 1593332437605,
    "relativePath": "image\\waitingroom"
  },
  "fde65b13-ebdb-4f38-87f8-f176ab9c6d9c": {
    "asset": 1593332437603,
    "meta": 1593332472551,
    "relativePath": "image\\shop\\stall2.jpg"
  },
  "629ad12c-6fe3-4337-9272-5acad2ae2481": {
    "asset": 1593332437606,
    "meta": 1593332472563,
    "relativePath": "image\\waitingroom\\back.png"
  },
  "2bdbeccc-c51c-41aa-ab3b-5ef22a035d69": {
    "asset": 1593332437609,
    "meta": 1593332472584,
    "relativePath": "image\\waitingroom\\go.png"
  },
  "03f16b48-a439-4b8a-a413-9dcd655f22d9": {
    "asset": 1593332437607,
    "meta": 1593332472604,
    "relativePath": "image\\waitingroom\\button_.png"
  },
  "861c65da-e092-48e8-be31-4132a70fb40d": {
    "asset": 1593332437609,
    "meta": 1593332472618,
    "relativePath": "image\\waitingroom\\player.png"
  },
  "54c39801-c390-4f50-8e15-c68e689c1e49": {
    "asset": 1593332437611,
    "meta": 1593332472637,
    "relativePath": "image\\waitingroom\\wait_bg.png"
  },
  "5d82829c-8698-4dda-85a3-7093fe48713e": {
    "asset": 1593332437612,
    "meta": 1593332472644,
    "relativePath": "image\\waitingroom\\waitfriend_off.png"
  },
  "e199b834-9dec-4b5d-b68d-188d66d38318": {
    "asset": 1593332437611,
    "meta": 1593332472658,
    "relativePath": "image\\waitingroom\\waitfriend.png"
  },
  "6e288f1d-e7f3-4d3c-a705-0b34724d3e93": {
    "asset": 1593332437617,
    "meta": 1593332472675,
    "relativePath": "image\\waitingroom\\waiting_bg2.png"
  },
  "acb71957-0a12-435a-b902-f1bfbcf01c33": {
    "asset": 1593332437616,
    "meta": 1593332472691,
    "relativePath": "image\\waitingroom\\waiting_bg.png"
  },
  "750e7107-dd80-46af-bb43-d4d6d549ada8": {
    "asset": 1593332437618,
    "meta": 1593332472706,
    "relativePath": "image\\waitingroom\\waitingroom_bg.jpg"
  },
  "997cf00a-e67f-435e-875b-8a13402d6506": {
    "asset": 1593349309059,
    "meta": 1593349309085,
    "relativePath": "scene\\Shop.fire"
  },
  "1ca78f16-5072-4788-b474-a95d8f38c2b3": {
    "asset": 1593345002117,
    "meta": 1593345002145,
    "relativePath": "scene\\lobby.fire"
  },
  "124572c1-6e42-4ea8-ac97-af091a7adf9f": {
    "asset": 1593332843144,
    "meta": 1593333288724,
    "relativePath": "script\\logIn.ts"
  },
  "31127b21-22f3-4960-b9e6-6c855e7e2703": {
    "asset": 1593333772338,
    "meta": 1593333772380,
    "relativePath": "prefab\\createRoom_button.prefab"
  },
  "9cbc6a2b-c0f1-4039-9bdd-45a927829722": {
    "asset": 1593371654309,
    "meta": 1593371654330,
    "relativePath": "scene\\game.fire"
  },
  "247d3a90-3ac7-40ea-a3de-8ce98490bafd": {
    "asset": 1593372031152,
    "meta": 1593372031190,
    "relativePath": "scene\\logIn.fire"
  },
  "f6222b2e-16de-4214-8748-237f33295196": {
    "asset": 1593337498228,
    "meta": 1593337579618,
    "relativePath": "scene\\waitingroom.fire"
  },
  "fc727c10-8e74-44bd-8bff-e9589b2d1ecb": {
    "asset": 1593337819737,
    "meta": 1593337823237,
    "relativePath": "script\\waiting_room.ts"
  },
  "49996b62-b82a-4269-901b-433d2f05cccb": {
    "asset": 1593344454839,
    "meta": 1593343441215,
    "relativePath": "script\\audio"
  },
  "430eccbf-bf2c-4e6e-8c0c-884bbb487f32": {
    "asset": 1577083950000,
    "meta": 1593343620821,
    "relativePath": "effects\\__builtin-editor-gizmo-line.effect"
  },
  "6c5cf6e1-b044-4eac-9431-835644d57381": {
    "asset": 1577083950000,
    "meta": 1593343620872,
    "relativePath": "effects\\__builtin-editor-gizmo-unlit.effect"
  },
  "115286d1-2e10-49ee-aab4-341583f607e8": {
    "asset": 1577083950000,
    "meta": 1593343620976,
    "relativePath": "effects\\__builtin-editor-gizmo.effect"
  },
  "abc2cb62-7852-4525-a90d-d474487b88f2": {
    "asset": 1577083950000,
    "meta": 1593343621070,
    "relativePath": "effects\\builtin-phong.effect"
  },
  "e2f00085-c597-422d-9759-52c360279106": {
    "asset": 1577083950000,
    "meta": 1593343621082,
    "relativePath": "effects\\builtin-toon.effect"
  },
  "71561142-4c83-4933-afca-cb7a17f67053": {
    "asset": 1577083950000,
    "meta": 1593343621112,
    "relativePath": "image\\default_btn_disabled.png"
  },
  "e851e89b-faa2-4484-bea6-5c01dd9f06e2": {
    "asset": 1577083950000,
    "meta": 1593343621117,
    "relativePath": "image\\default_btn_normal.png"
  },
  "b43ff3c2-02bb-4874-81f7-f2dea6970f18": {
    "asset": 1577083950000,
    "meta": 1593343621134,
    "relativePath": "image\\default_btn_pressed.png"
  },
  "edd215b9-2796-4a05-aaf5-81f96c9281ce": {
    "asset": 1577083950000,
    "meta": 1593343621141,
    "relativePath": "image\\default_editbox_bg.png"
  },
  "d81ec8ad-247c-4e62-aa3c-d35c4193c7af": {
    "asset": 1577083950000,
    "meta": 1593343621159,
    "relativePath": "image\\default_panel.png"
  },
  "99170b0b-d210-46f1-b213-7d9e3f23098a": {
    "asset": 1577083950000,
    "meta": 1593343621163,
    "relativePath": "image\\default_progressbar_bg.png"
  },
  "567dcd80-8bf4-4535-8a5a-313f1caf078a": {
    "asset": 1577083950000,
    "meta": 1593343621174,
    "relativePath": "image\\default_radio_button_off.png"
  },
  "cfef78f1-c8df-49b7-8ed0-4c953ace2621": {
    "asset": 1577083950000,
    "meta": 1593343621177,
    "relativePath": "image\\default_progressbar.png"
  },
  "9d60001f-b5f4-4726-a629-2659e3ded0b8": {
    "asset": 1577083950000,
    "meta": 1593343621188,
    "relativePath": "image\\default_radio_button_on.png"
  },
  "4bab67cb-18e6-4099-b840-355f0473f890": {
    "asset": 1577083950000,
    "meta": 1593343621191,
    "relativePath": "image\\default_scrollbar_bg.png"
  },
  "617323dd-11f4-4dd3-8eec-0caf6b3b45b9": {
    "asset": 1577083950000,
    "meta": 1593343621202,
    "relativePath": "image\\default_scrollbar_vertical_bg.png"
  },
  "d6d3ca85-4681-47c1-b5dd-d036a9d39ea2": {
    "asset": 1577083950000,
    "meta": 1593343621206,
    "relativePath": "image\\default_scrollbar_vertical.png"
  },
  "0291c134-b3da-4098-b7b5-e397edbe947f": {
    "asset": 1577083950000,
    "meta": 1593343621219,
    "relativePath": "image\\default_scrollbar.png"
  },
  "0275e94c-56a7-410f-bd1a-fc7483f7d14a": {
    "asset": 1577083950000,
    "meta": 1593343621222,
    "relativePath": "image\\default_sprite_splash.png"
  },
  "6e056173-d285-473c-b206-40a7fff5386e": {
    "asset": 1577083950000,
    "meta": 1593343621236,
    "relativePath": "image\\default_sprite.png"
  },
  "73a0903d-d80e-4e3c-aa67-f999543c08f5": {
    "asset": 1577083950000,
    "meta": 1593343621239,
    "relativePath": "image\\default_toggle_checkmark.png"
  },
  "c25b9d50-c8fc-4d27-beeb-6e7c1f2e5c0f": {
    "asset": 1577083950000,
    "meta": 1593343621248,
    "relativePath": "image\\default_toggle_disabled.png"
  },
  "d29077ba-1627-4a72-9579-7b56a235340c": {
    "asset": 1577083950000,
    "meta": 1593343621252,
    "relativePath": "image\\default_toggle_normal.png"
  },
  "c4480a0a-6ac5-443f-8b40-361a14257fc8": {
    "asset": 1577083950000,
    "meta": 1593343621255,
    "relativePath": "materials\\builtin-phong.mtl"
  },
  "2be36297-9abb-4fee-8049-9ed5e271da8a": {
    "asset": 1577083950000,
    "meta": 1593343621261,
    "relativePath": "misc\\default_video.mp4"
  },
  "b181c1e4-0a72-4a91-bfb0-ae6f36ca60bd": {
    "asset": 1577083950000,
    "meta": 1593343621264,
    "relativePath": "image\\default_toggle_pressed.png"
  },
  "a87cc147-01b2-43f8-8e42-a7ca90b0c757": {
    "asset": 1588660440814,
    "meta": 1593343621268,
    "relativePath": "model\\prefab\\box.prefab"
  },
  "fe1417b6-fe6b-46a4-ae7c-9fd331f33a2a": {
    "asset": 1588660440916,
    "meta": 1593343621275,
    "relativePath": "model\\prefab\\capsule.prefab"
  },
  "b5fc2cf2-7942-483d-be1f-bbeadc4714ad": {
    "asset": 1588660440978,
    "meta": 1593343621280,
    "relativePath": "model\\prefab\\cone.prefab"
  },
  "1c5e4038-953a-44c2-b620-0bbfc6170477": {
    "asset": 1588660441107,
    "meta": 1593343621285,
    "relativePath": "model\\prefab\\cylinder.prefab"
  },
  "3f376125-a699-40ca-ad05-04d662eaa1f2": {
    "asset": 1588660441177,
    "meta": 1593343621293,
    "relativePath": "model\\prefab\\plane.prefab"
  },
  "6c9ef10d-b479-420b-bfe6-39cdda6a8ae0": {
    "asset": 1588660441236,
    "meta": 1593343621299,
    "relativePath": "model\\prefab\\quad.prefab"
  },
  "2d9a4b85-b0ab-4c46-84c5-18f393ab2058": {
    "asset": 1588660441276,
    "meta": 1593343621303,
    "relativePath": "model\\prefab\\sphere.prefab"
  },
  "de510076-056b-484f-b94c-83bef217d0e1": {
    "asset": 1588660441496,
    "meta": 1593343621307,
    "relativePath": "model\\prefab\\torus.prefab"
  },
  "8a96b965-2dc0-4e03-aa90-3b79cb93b5b4": {
    "asset": 1577083950000,
    "meta": 1593343621321,
    "relativePath": "obsolete\\atom.png"
  },
  "b8223619-7e38-47c4-841f-9160c232495a": {
    "asset": 1577083950000,
    "meta": 1593343621886,
    "relativePath": "obsolete\\atom.plist"
  },
  "d0a82d39-bede-46c4-b698-c81ff0dedfff": {
    "asset": 1577083950000,
    "meta": 1593343621338,
    "relativePath": "particle\\atom.png"
  },
  "b2687ac4-099e-403c-a192-ff477686f4f5": {
    "asset": 1577083950000,
    "meta": 1593343621889,
    "relativePath": "particle\\atom.plist"
  },
  "972b9a4d-47ee-4c74-b5c3-61d8a69bc29f": {
    "asset": 1588660441732,
    "meta": 1593343621350,
    "relativePath": "prefab\\button.prefab"
  },
  "897ef7a1-4860-4f64-968d-f5924b18668a": {
    "asset": 1588660441787,
    "meta": 1593343621354,
    "relativePath": "prefab\\camera.prefab"
  },
  "2c937608-2562-40ea-b264-7395df6f0cea": {
    "asset": 1588660441841,
    "meta": 1593343621358,
    "relativePath": "prefab\\canvas.prefab"
  },
  "61aeb05b-3b32-452b-8eed-2b76deeed554": {
    "asset": 1588660441940,
    "meta": 1593343621373,
    "relativePath": "prefab\\editbox.prefab"
  },
  "27756ebb-3d33-44b0-9b96-e858fadd4dd4": {
    "asset": 1588660442105,
    "meta": 1593343621378,
    "relativePath": "prefab\\label.prefab"
  },
  "785a442c-3ceb-45be-a46e-7317f625f3b9": {
    "asset": 1588660442230,
    "meta": 1593343621381,
    "relativePath": "prefab\\layout.prefab"
  },
  "61906da3-7003-4bda-9abc-5769c76faee4": {
    "asset": 1588660442302,
    "meta": 1593343621387,
    "relativePath": "prefab\\light\\ambient.prefab"
  },
  "ddb99b39-7004-47cd-9705-751905c43c46": {
    "asset": 1588660442368,
    "meta": 1593343621392,
    "relativePath": "prefab\\light\\directional.prefab"
  },
  "0cf30284-9073-46bc-9eba-e62b69dbbff3": {
    "asset": 1588660442475,
    "meta": 1593343621398,
    "relativePath": "prefab\\light\\point.prefab"
  },
  "f5331fd2-bf42-4ee3-a3fd-3e1657600eff": {
    "asset": 1588660442536,
    "meta": 1593343621403,
    "relativePath": "prefab\\light\\spot.prefab"
  },
  "ca8401fe-ad6e-41a8-bd46-8e3e4e9945be": {
    "asset": 1588660442665,
    "meta": 1593343621414,
    "relativePath": "prefab\\pageview.prefab"
  },
  "cd33edea-55f5-46c2-958d-357a01384a36": {
    "asset": 1588660442814,
    "meta": 1593343621424,
    "relativePath": "prefab\\particlesystem.prefab"
  },
  "5965ffac-69da-4b55-bcde-9225d0613c28": {
    "asset": 1588660442937,
    "meta": 1593343621442,
    "relativePath": "prefab\\progressBar.prefab"
  },
  "4a37dd57-78cd-4cec-aad4-f11a73d12b63": {
    "asset": 1588660443037,
    "meta": 1593343621451,
    "relativePath": "prefab\\richtext.prefab"
  },
  "32044bd2-481f-4cf1-a656-e2b2fb1594eb": {
    "asset": 1588660443105,
    "meta": 1593343621454,
    "relativePath": "prefab\\scrollview.prefab"
  },
  "0004d1cf-a0ad-47d8-ab17-34d3db9d35a3": {
    "asset": 1588660443194,
    "meta": 1593343621457,
    "relativePath": "prefab\\slider.prefab"
  },
  "1f55e3be-b89b-4b79-88de-47fd31018044": {
    "asset": 1588660443276,
    "meta": 1593343621472,
    "relativePath": "prefab\\sprite_splash.prefab"
  },
  "96083d03-c332-4a3f-9386-d03e2d19e8ee": {
    "asset": 1588660443244,
    "meta": 1593343621476,
    "relativePath": "prefab\\sprite.prefab"
  },
  "7de03a80-4457-438d-95a7-3e7cdffd6086": {
    "asset": 1588660443328,
    "meta": 1593343621479,
    "relativePath": "prefab\\tiledmap.prefab"
  },
  "0e42ba95-1fa1-46aa-b2cf-143cd1bcee2c": {
    "asset": 1588660443368,
    "meta": 1593343621483,
    "relativePath": "prefab\\tiledtile.prefab"
  },
  "0d784963-d024-4ea6-a7db-03be0ad63010": {
    "asset": 1588660443474,
    "meta": 1593343621504,
    "relativePath": "prefab\\toggle.prefab"
  },
  "bf0a434c-84dd-4a8e-a08a-7a36f180cc75": {
    "asset": 1588660443545,
    "meta": 1593343621515,
    "relativePath": "prefab\\toggleContainer.prefab"
  },
  "d1b8be49-b0a0-435c-83b7-552bed4bbe35": {
    "asset": 1588660443610,
    "meta": 1593343621523,
    "relativePath": "prefab\\toggleGroup.prefab"
  },
  "232d2782-c4bd-4bb4-9e01-909f03d6d3b9": {
    "asset": 1588660443736,
    "meta": 1593343621536,
    "relativePath": "prefab\\videoplayer.prefab"
  },
  "8c5001fd-07ee-4a4b-a8a0-63e15195e94d": {
    "asset": 1588660444054,
    "meta": 1593343621540,
    "relativePath": "prefab\\webview.prefab"
  },
  "144c3297-af63-49e8-b8ef-1cfa29b3be28": {
    "asset": 1577083950000,
    "meta": 1593343621557,
    "relativePath": "resources\\effects\\builtin-2d-gray-sprite.effect"
  },
  "0e93aeaa-0b53-4e40-b8e0-6268b4e07bd7": {
    "asset": 1577083950000,
    "meta": 1593343621572,
    "relativePath": "resources\\effects\\builtin-2d-spine.effect"
  },
  "2874f8dd-416c-4440-81b7-555975426e93": {
    "asset": 1577083950000,
    "meta": 1593343621590,
    "relativePath": "resources\\effects\\builtin-2d-sprite.effect"
  },
  "c0040c95-c57f-49cd-9cbc-12316b73d0d4": {
    "asset": 1577083950000,
    "meta": 1593343621616,
    "relativePath": "resources\\effects\\builtin-clear-stencil.effect"
  },
  "79eafaef-b7ef-45d9-9c3f-591dc836fc7a": {
    "asset": 1577083950000,
    "meta": 1593343621650,
    "relativePath": "resources\\effects\\builtin-unlit-transparent.effect"
  },
  "6d91e591-4ce0-465c-809f-610ec95019c6": {
    "asset": 1577083950000,
    "meta": 1593343621718,
    "relativePath": "resources\\effects\\builtin-unlit.effect"
  },
  "6f801092-0c37-4f30-89ef-c8d960825b36": {
    "asset": 1577083950000,
    "meta": 1593343621757,
    "relativePath": "resources\\materials\\builtin-2d-base.mtl"
  },
  "3a7bb79f-32fd-422e-ada2-96f518fed422": {
    "asset": 1577083950000,
    "meta": 1593343621779,
    "relativePath": "resources\\materials\\builtin-2d-gray-sprite.mtl"
  },
  "7afd064b-113f-480e-b793-8817d19f63c3": {
    "asset": 1577083950000,
    "meta": 1593343621788,
    "relativePath": "resources\\materials\\builtin-2d-spine.mtl"
  },
  "eca5d2f2-8ef6-41c2-bbe6-f9c79d09c432": {
    "asset": 1577083950000,
    "meta": 1593343621792,
    "relativePath": "resources\\materials\\builtin-2d-sprite.mtl"
  },
  "cf7e0bb8-a81c-44a9-ad79-d28d43991032": {
    "asset": 1577083950000,
    "meta": 1593343621795,
    "relativePath": "resources\\materials\\builtin-clear-stencil.mtl"
  },
  "bb90502b-733e-4255-90e4-100b47930f4a": {
    "asset": 1593343618773,
    "meta": 1593343621843,
    "relativePath": "script\\audio\\audio.ts"
  },
  "2a296057-247c-4a1c-bbeb-0548b6c98650": {
    "asset": 1577083950000,
    "meta": 1593343621855,
    "relativePath": "resources\\materials\\builtin-unlit.mtl"
  },
  "954fec8b-cd16-4bb9-a3b7-7719660e7558": {
    "asset": 1577083950000,
    "meta": 1593343621946,
    "relativePath": "model\\primitives.fbx"
  },
  "d493f205-af40-4ee8-86a5-88cfbdcc7a98": {
    "asset": 1593344419900,
    "meta": 1593343659075,
    "relativePath": "audio"
  },
  "340fc252-e52a-421a-99cb-fed54242fd7c": {
    "asset": 1593343731375,
    "meta": 1593343731394,
    "relativePath": "audio\\bgm.mp3"
  },
  "29fdce43-17a4-4aa9-8fd0-0f5ce5ad03ca": {
    "asset": 1593344419897,
    "meta": 1593344419915,
    "relativePath": "audio\\waitingroom.mp3"
  },
  "7b739ce6-3a71-4907-94d4-e05d72745187": {
    "asset": 1593345599213,
    "meta": 1593345599232,
    "relativePath": "audio\\boss_bgm.mp3"
  },
  "00fb5cd5-6f14-440d-853c-6b5d8d04b77f": {
    "asset": 1593346146674,
    "meta": 1593346146697,
    "relativePath": "audio\\placebubble.mp3"
  },
  "0d98b5b4-14d2-4a73-9959-33fe86f551bd": {
    "asset": 1593346481267,
    "meta": 1593346485146,
    "relativePath": "script\\boss1\\bubble_gen.ts"
  },
  "b30a3f2b-afda-4b19-a5cd-aba1f98c0f74": {
    "asset": 1593347025911,
    "meta": 1593347025934,
    "relativePath": "audio\\bubbleexplode.mp3"
  },
  "76a4f799-c483-4e56-8031-34d9d2dd42fb": {
    "asset": 1593347119450,
    "meta": 1593347124538,
    "relativePath": "script\\boss1\\bubble_in_boss.ts"
  },
  "168ef57a-ba78-4d9a-a189-8daf9eb3f187": {
    "asset": 1593347249050,
    "meta": 1593347250281,
    "relativePath": "script\\boss1\\boss_bubble.ts"
  },
  "3edf0f0d-b785-4c16-860f-4ffbe991aa0d": {
    "asset": 1593348121378,
    "meta": 1593348121399,
    "relativePath": "audio\\playerinbubble.mp3"
  },
  "b3d53c04-5cd7-43ce-bcf8-caf859508ab7": {
    "asset": 1593348214404,
    "meta": 1593348214459,
    "relativePath": "audio\\playerexplode.mp3"
  },
  "ba1fdc21-26af-48ee-8d69-c87e94b46c83": {
    "asset": 1593348302866,
    "meta": 1593348302879,
    "relativePath": "audio\\lose.mp3"
  },
  "61a63af0-fed2-4896-9ea5-b7fc0de67bfd": {
    "asset": 1593348464177,
    "meta": 1593348464224,
    "relativePath": "audio\\win.mp3"
  },
  "6d06c0b6-adf1-41f3-b32b-7388c34cd2dc": {
    "asset": 1593348801387,
    "meta": 1593348802501,
    "relativePath": "script\\boss1\\boss.ts"
  },
  "ae7d9d1d-a820-436b-a514-bfff873f207c": {
    "asset": 1593348984281,
    "meta": 1593348984350,
    "relativePath": "script\\shop.ts"
  },
  "69f8223a-a9b8-4d19-90df-e3fd30de089c": {
    "asset": 1593349380350,
    "meta": 1593349380368,
    "relativePath": "audio\\getitem.mp3"
  },
  "c4204d3c-bbee-40d0-874a-ca1b4a11c9a9": {
    "asset": 1593349588305,
    "meta": 1593349588325,
    "relativePath": "audio\\start.mp3"
  },
  "9f5fd34c-3009-40f6-b78b-47897e622949": {
    "asset": 1593350593130,
    "meta": 1593350593147,
    "relativePath": "audio\\pvpbgm.mp3"
  },
  "5df7c5a0-bb59-4c49-94c9-27b5e155794f": {
    "asset": 1593350866125,
    "meta": 1593350866733,
    "relativePath": "script\\bubble.ts"
  },
  "5c2cf310-4990-4d88-95a9-9cdcc608dd92": {
    "asset": 1593351268470,
    "meta": 1593351269721,
    "relativePath": "script\\audio\\bgm_play.ts"
  },
  "fe1e3f78-c5fc-4985-b153-593e72a62ff5": {
    "asset": 1593368908380,
    "meta": 1593368908381,
    "relativePath": "animation\\pirate"
  },
  "f4d8fddd-9da7-44db-b653-9363faaf7b37": {
    "asset": 1593369186134,
    "meta": 1593369186148,
    "relativePath": "animation\\pirate\\pirate_idle_down.anim"
  },
  "91c0ffb7-9528-4493-a6dc-2c5af475c57d": {
    "asset": 1593369175300,
    "meta": 1593369175318,
    "relativePath": "animation\\pirate\\pirate_idle_up.anim"
  },
  "26871614-86e4-45d3-8d7d-1e60442d9a1b": {
    "asset": 1593369194529,
    "meta": 1593369194560,
    "relativePath": "animation\\pirate\\pirate_idle_left.anim"
  },
  "340af6ce-389f-4ba4-a604-5d4fdee52d34": {
    "asset": 1593369203024,
    "meta": 1593369203040,
    "relativePath": "animation\\pirate\\pirate_idle_right.anim"
  },
  "fe1ee599-774d-4cb4-9751-fea085f2faf5": {
    "asset": 1593369095887,
    "meta": 1593369095889,
    "relativePath": "image\\pirate"
  },
  "6c144416-d373-4967-8a23-c4b5ea4c38f3": {
    "asset": 1593369126503,
    "meta": 1593369126668,
    "relativePath": "image\\pirate\\Image 462 at frame 9.png"
  },
  "4a6e34d6-5229-4491-9be3-dca4b77bf818": {
    "asset": 1593369130803,
    "meta": 1593369130828,
    "relativePath": "image\\pirate\\Image 464 at frame 9.png"
  },
  "b7d0d939-69eb-41b3-8edb-209d4756c369": {
    "asset": 1593369133330,
    "meta": 1593369133355,
    "relativePath": "image\\pirate\\Image 463 at frame 9.png"
  },
  "fba7fffa-6688-4e75-820f-38991ca66e9c": {
    "asset": 1593369137209,
    "meta": 1593369137256,
    "relativePath": "image\\pirate\\Image 461 at frame 9.png"
  },
  "1b0178a9-56bd-47a9-8f58-9694a5d40565": {
    "asset": 1593369542027,
    "meta": 1593369542034,
    "relativePath": "animation\\pirate\\pirate_move_down.anim"
  },
  "cf81fadd-09eb-4de6-83ac-c033b4123b3c": {
    "asset": 1593369504147,
    "meta": 1593369504154,
    "relativePath": "animation\\pirate\\pirate_move_up.anim"
  },
  "2a1ff91b-a287-4222-bedd-3f2535390fe9": {
    "asset": 1593369409659,
    "meta": 1593369409674,
    "relativePath": "animation\\pirate\\pirate_move_left.anim"
  },
  "f6c11772-e81a-4855-8137-3d6af4c30bc7": {
    "asset": 1593369469277,
    "meta": 1593369469283,
    "relativePath": "animation\\pirate\\pirate_move_right.anim"
  },
  "98ba403a-dcb1-45ac-bc5d-08f365b015d6": {
    "asset": 1593369364539,
    "meta": 1593369364605,
    "relativePath": "image\\pirate\\Image 471 at frame 9.png"
  },
  "738c9f16-fd9f-4691-8d72-bff47da8a103": {
    "asset": 1593369364538,
    "meta": 1593369364611,
    "relativePath": "image\\pirate\\Image 470 at frame 9.png"
  },
  "4192c501-e633-4f3c-9c7f-e84341c64fe8": {
    "asset": 1593369364539,
    "meta": 1593369364632,
    "relativePath": "image\\pirate\\Image 472 at frame 9.png"
  },
  "afe4d814-137a-401a-95ae-2760b702d8cc": {
    "asset": 1593369364539,
    "meta": 1593369364644,
    "relativePath": "image\\pirate\\Image 469 at frame 9.png"
  },
  "efa45eff-7927-44f4-802e-cbc366867876": {
    "asset": 1593369441776,
    "meta": 1593369441827,
    "relativePath": "image\\pirate\\Image 474 at frame 9.png"
  },
  "43535923-6715-468e-9304-72627fbbccf5": {
    "asset": 1593369441777,
    "meta": 1593369441835,
    "relativePath": "image\\pirate\\Image 475 at frame 9.png"
  },
  "cd22a054-108b-4404-8de2-ea1116b8f469": {
    "asset": 1593369441777,
    "meta": 1593369441859,
    "relativePath": "image\\pirate\\Image 476 at frame 9.png"
  },
  "db08a68e-a327-4a17-b2bc-961975bdb2ed": {
    "asset": 1593369441777,
    "meta": 1593369441872,
    "relativePath": "image\\pirate\\Image 477 at frame 9.png"
  },
  "6d642325-8a0d-430d-aaa3-367865f55c37": {
    "asset": 1593369477835,
    "meta": 1593369477969,
    "relativePath": "image\\pirate\\Image 480 at frame 9.png"
  },
  "79896624-5c81-420f-9aa9-e597bbb6f9bd": {
    "asset": 1593369477835,
    "meta": 1593369477976,
    "relativePath": "image\\pirate\\Image 481 at frame 9.png"
  },
  "b0ce8aea-b1e3-4752-925a-b8065a2a298f": {
    "asset": 1593369477835,
    "meta": 1593369477992,
    "relativePath": "image\\pirate\\Image 479 at frame 9.png"
  },
  "923e9740-d701-46b2-8f39-07e9141fbb92": {
    "asset": 1593369477835,
    "meta": 1593369477998,
    "relativePath": "image\\pirate\\Image 482 at frame 9.png"
  },
  "37a9e680-d268-4119-b840-653034e83046": {
    "asset": 1593369513912,
    "meta": 1593369513953,
    "relativePath": "image\\pirate\\Image 487 at frame 9.png"
  },
  "590ba8aa-ff69-4a38-b55c-cb014e6b9b9b": {
    "asset": 1593369513912,
    "meta": 1593369513978,
    "relativePath": "image\\pirate\\Image 484 at frame 9.png"
  },
  "b1a9cb4c-95c5-4a68-9845-8737975ec0e7": {
    "asset": 1593369513913,
    "meta": 1593369513994,
    "relativePath": "image\\pirate\\Image 485 at frame 9.png"
  },
  "017c4e90-11bc-4451-be55-dc38d76af4d2": {
    "asset": 1593369513913,
    "meta": 1593369514006,
    "relativePath": "image\\pirate\\Image 486 at frame 9.png"
  },
  "c946ac8b-4e11-41b3-bbf0-c48da1fcf2d8": {
    "asset": 1593369573938,
    "meta": 1593369573966,
    "relativePath": "image\\pirate\\Image 509 at frame 9.png"
  },
  "bd5cb463-acee-4385-b816-40340ab28543": {
    "asset": 1593369620154,
    "meta": 1593369620169,
    "relativePath": "animation\\pirate\\pirate_in_bubble.anim"
  },
  "26ea5a6b-0709-4098-a390-d8f8292cb5b4": {
    "asset": 1593370358135,
    "meta": 1593370696389,
    "relativePath": "script\\Lobby.ts"
  },
  "07382356-749d-44f4-a105-16468c70f251": {
    "asset": 1593371448344,
    "meta": 1593371459573,
    "relativePath": "script\\player.ts"
  },
  "eda1b7c4-3aa2-4d90-8527-ebe10277f9b5": {
    "asset": 1593372021132,
    "meta": 1593372021147,
    "relativePath": "prefab\\other_prefab.prefab"
  },
  "6e6d924e-35a1-435b-8fcc-0b0573bf9b87": {
    "asset": 1593372381361,
    "meta": 1593372387217,
    "relativePath": "script\\move_block.ts"
  },
  "2f1edc2e-0a92-43db-aa54-0ed6d96a99fb": {
    "asset": 1593375228196,
    "meta": 1593375380156,
    "relativePath": "script\\GameMgr.ts"
  },
  "d375e64d-0a61-4489-9f79-1188347d5968": {
    "asset": 1593375911108,
    "meta": 1593375938041,
    "relativePath": "script\\boss1\\player_in_boss.ts"
  }
}