{
  "__type__": "cc.AnimationClip",
  "_name": "boss_die",
  "_objFlags": 0,
  "_native": "",
  "_duration": 3.5166666666666666,
  "sample": 60,
  "speed": 1,
  "wrapMode": 1,
  "curveData": {
    "comps": {
      "cc.Sprite": {
        "spriteFrame": [
          {
            "frame": 0,
            "value": {
              "__uuid__": "967d56f4-ba0f-4ad9-b37f-5b6ccac0c241"
            }
          },
          {
            "frame": 0.08333333333333333,
            "value": {
              "__uuid__": "001e5fcb-8ca6-40e8-9188-30cd1f7fb61a"
            }
          },
          {
            "frame": 0.16666666666666666,
            "value": {
              "__uuid__": "710d663c-9d4c-49c8-8719-f67e1b1bb387"
            }
          },
          {
            "frame": 0.25,
            "value": {
              "__uuid__": "8cd4ed57-1e26-4cab-a962-ad7b04cbe644"
            }
          },
          {
            "frame": 0.3333333333333333,
            "value": {
              "__uuid__": "52c6a5d8-874c-43f3-b70b-d38097c9e913"
            }
          },
          {
            "frame": 0.4166666666666667,
            "value": {
              "__uuid__": "a0ae27c0-088c-40ad-9adb-85c13cb826db"
            }
          },
          {
            "frame": 0.5,
            "value": {
              "__uuid__": "9c46f061-4701-4547-b7b6-41dfa2766ba8"
            }
          },
          {
            "frame": 0.5833333333333334,
            "value": {
              "__uuid__": "c3ead7e2-bfde-4fbd-97bb-76a69026db95"
            }
          },
          {
            "frame": 0.6666666666666666,
            "value": {
              "__uuid__": "814dd201-9263-46fc-8a82-184ff1b6ff6e"
            }
          },
          {
            "frame": 0.75,
            "value": {
              "__uuid__": "22ae5f04-c441-49c6-a675-fa0e47c26008"
            }
          },
          {
            "frame": 0.8333333333333334,
            "value": {
              "__uuid__": "d1de8dda-9b31-4ae3-a7c1-658d3627aa21"
            }
          },
          {
            "frame": 0.9166666666666666,
            "value": {
              "__uuid__": "539526b3-7abb-435f-88ef-2f5f6a53607c"
            }
          },
          {
            "frame": 1,
            "value": {
              "__uuid__": "3717cda3-7e64-409d-ba48-3d56b297eddb"
            }
          },
          {
            "frame": 1.0833333333333333,
            "value": {
              "__uuid__": "ddb0f91a-e0f5-4e3d-8e7b-cae5b1284f8a"
            }
          },
          {
            "frame": 1.1666666666666667,
            "value": {
              "__uuid__": "7db20feb-e6ec-4511-8e66-3ec755ea2946"
            }
          },
          {
            "frame": 1.25,
            "value": {
              "__uuid__": "5bc180fe-9e3a-4a7f-8a43-b46b8d8135c0"
            }
          },
          {
            "frame": 1.3333333333333333,
            "value": {
              "__uuid__": "6491d72d-bed6-4ae6-a65e-e989c5d02460"
            }
          },
          {
            "frame": 1.4166666666666667,
            "value": {
              "__uuid__": "e35d0643-65aa-4721-94eb-55d45f04d0cc"
            }
          },
          {
            "frame": 1.5,
            "value": {
              "__uuid__": "cb278291-0c99-48a0-8458-596ad7946eb6"
            }
          },
          {
            "frame": 1.5833333333333333,
            "value": {
              "__uuid__": "f49738bb-e83d-44f6-8062-6d2056ad154d"
            }
          },
          {
            "frame": 1.6666666666666667,
            "value": {
              "__uuid__": "125af21d-8abf-4bf9-ac48-df7cbdc47acb"
            }
          },
          {
            "frame": 1.75,
            "value": {
              "__uuid__": "1bc219cc-f1dc-4f32-835c-df20f9562b5a"
            }
          },
          {
            "frame": 1.8333333333333333,
            "value": {
              "__uuid__": "4a282595-a205-4d49-a7c4-d0020c7d4794"
            }
          },
          {
            "frame": 1.9166666666666667,
            "value": {
              "__uuid__": "9b25e31b-a8e7-48d2-b5d4-3d2f4ce4f9da"
            }
          },
          {
            "frame": 2,
            "value": {
              "__uuid__": "9d5a4216-439f-41f6-8835-062f92bd8881"
            }
          },
          {
            "frame": 2.0833333333333335,
            "value": {
              "__uuid__": "404d974c-80b4-4d75-ab8d-f127012f5434"
            }
          },
          {
            "frame": 2.1666666666666665,
            "value": {
              "__uuid__": "52a28d25-b02c-4f57-b781-595d5b546575"
            }
          },
          {
            "frame": 2.25,
            "value": {
              "__uuid__": "fb67823f-b1f1-4569-8999-d6d58242bb49"
            }
          },
          {
            "frame": 2.3333333333333335,
            "value": {
              "__uuid__": "6544196c-18e8-41e4-bd5c-fff8616caada"
            }
          },
          {
            "frame": 2.4166666666666665,
            "value": {
              "__uuid__": "8dadf67c-7b9a-4f31-b4d0-b361cc44af99"
            }
          },
          {
            "frame": 2.5,
            "value": {
              "__uuid__": "b0f9d147-e56c-4207-8ad6-9485070d49e8"
            }
          },
          {
            "frame": 2.5833333333333335,
            "value": {
              "__uuid__": "a872ed6a-aa5f-4b48-ac44-b8074c1876ea"
            }
          },
          {
            "frame": 2.6666666666666665,
            "value": {
              "__uuid__": "12bc0ca2-720a-435d-8ee0-35f4ecb43310"
            }
          },
          {
            "frame": 2.75,
            "value": {
              "__uuid__": "92ea76b3-e6e8-42f2-8338-3f074397b9b4"
            }
          },
          {
            "frame": 2.8333333333333335,
            "value": {
              "__uuid__": "17935b4c-450e-4549-a2f8-ce45c69ab2bd"
            }
          },
          {
            "frame": 2.9166666666666665,
            "value": {
              "__uuid__": "36d4317d-2abe-404a-aeef-101c374fcb7f"
            }
          },
          {
            "frame": 3,
            "value": {
              "__uuid__": "62b62669-7c1d-4b8f-8b87-e8d74b9cc189"
            }
          },
          {
            "frame": 3.0833333333333335,
            "value": {
              "__uuid__": "47b5580d-7532-4c46-a888-42d02edf2869"
            }
          },
          {
            "frame": 3.1666666666666665,
            "value": {
              "__uuid__": "b206c3dd-4adf-4fd5-8577-f9eea1591589"
            }
          },
          {
            "frame": 3.25,
            "value": {
              "__uuid__": "82d42bd9-fc77-4ad0-aa2f-ec28a38367e5"
            }
          },
          {
            "frame": 3.3333333333333335,
            "value": {
              "__uuid__": "6d9d93d0-1d6a-422f-896a-437f54d2703d"
            }
          },
          {
            "frame": 3.4166666666666665,
            "value": {
              "__uuid__": "c18e6f77-c793-4c5a-a55a-bb4795722f34"
            }
          },
          {
            "frame": 3.5,
            "value": {
              "__uuid__": "8c003fe2-e5dc-428e-aa49-90439a611b65"
            }
          }
        ]
      }
    }
  },
  "events": []
}