{
  "__type__": "cc.AnimationClip",
  "_name": "player_idle_down",
  "_objFlags": 0,
  "_native": "",
  "_duration": 0.016666666666666666,
  "sample": 60,
  "speed": 1,
  "wrapMode": 1,
  "curveData": {
    "comps": {
      "cc.Sprite": {
        "spriteFrame": [
          {
            "frame": 0,
            "value": {
              "__uuid__": "35f467ed-b059-41e3-9ba6-00f901826eb6"
            }
          }
        ]
      }
    }
  },
  "events": []
}