{
  "__type__": "cc.AnimationClip",
  "_name": "bubble_end",
  "_objFlags": 0,
  "_native": "",
  "_duration": 0.6833333333333333,
  "sample": 60,
  "speed": 1,
  "wrapMode": 2,
  "curveData": {
    "comps": {
      "cc.Sprite": {
        "spriteFrame": [
          {
            "frame": 0,
            "value": {
              "__uuid__": "b48badf1-2650-4dea-8e70-8fbc7e4d1181"
            }
          },
          {
            "frame": 0.08333333333333333,
            "value": {
              "__uuid__": "8d791dfb-f512-4bec-9ad7-034e2d8ad61a"
            }
          },
          {
            "frame": 0.16666666666666666,
            "value": {
              "__uuid__": "9370f0f7-e288-4ac5-9cc2-c9de83f6901e"
            }
          },
          {
            "frame": 0.25,
            "value": {
              "__uuid__": "fcb0ff96-80db-44aa-8bbc-feb1eaa7c2d8"
            }
          },
          {
            "frame": 0.3333333333333333,
            "value": {
              "__uuid__": "803f5ae6-8142-4156-aecb-1de6ea06ef35"
            }
          },
          {
            "frame": 0.4166666666666667,
            "value": {
              "__uuid__": "d64aacd9-b503-4b1d-97b2-8fbc055fbd82"
            }
          },
          {
            "frame": 0.5,
            "value": {
              "__uuid__": "e75e9977-0217-4151-836e-8c1b3e7254f8"
            }
          },
          {
            "frame": 0.5833333333333334,
            "value": {
              "__uuid__": "6da5ed38-55ff-46cc-8fd8-f28c55f660fe"
            }
          },
          {
            "frame": 0.6666666666666666,
            "value": {
              "__uuid__": "fafaa612-84a9-4703-8501-20f08fc5001f"
            }
          }
        ]
      }
    }
  },
  "events": []
}