{
  "__type__": "cc.AnimationClip",
  "_name": "moveblock_destroy",
  "_objFlags": 0,
  "_native": "",
  "_duration": 0.18333333333333332,
  "sample": 60,
  "speed": 1,
  "wrapMode": 1,
  "curveData": {
    "comps": {
      "cc.Sprite": {
        "spriteFrame": [
          {
            "frame": 0,
            "value": {
              "__uuid__": "88cc89ca-9cf5-448e-a60c-7e04b1ac8a11"
            }
          },
          {
            "frame": 0.16666666666666666,
            "value": {
              "__uuid__": "ce6956df-2095-47ae-9b9b-c1677f555ab0"
            }
          }
        ]
      }
    }
  },
  "events": []
}