{
  "__type__": "cc.SpriteFrame",
  "content": {
    "name": "789",
    "texture": "08dbbec8-f815-4571-ab09-b39f5e302c3d",
    "atlas": "",
    "rect": [
      1,
      1,
      40,
      58
    ],
    "offset": [
      0,
      0
    ],
    "originalSize": [
      42,
      60
    ],
    "capInsets": [
      0,
      0,
      0,
      0
    ]
  }
}