{
  "__type__": "cc.SpriteFrame",
  "content": {
    "name": "Image 220 at frame 9",
    "texture": "b6c377d9-e3ae-4855-85bb-621be9766ef7",
    "atlas": "",
    "rect": [
      0,
      0,
      40,
      44
    ],
    "offset": [
      0,
      0
    ],
    "originalSize": [
      40,
      44
    ],
    "capInsets": [
      0,
      0,
      0,
      0
    ]
  }
}