{
  "__type__": "cc.SpriteFrame",
  "content": {
    "name": "441",
    "texture": "9a592d5b-6acf-4d0f-970e-013f5471a058",
    "atlas": "",
    "rect": [
      0,
      0,
      119,
      120
    ],
    "offset": [
      0,
      0.5
    ],
    "originalSize": [
      119,
      121
    ],
    "capInsets": [
      0,
      0,
      0,
      0
    ]
  }
}