{
  "__type__": "cc.AnimationClip",
  "_name": "pirate_idle_down",
  "_objFlags": 0,
  "_native": "",
  "_duration": 0.016666666666666666,
  "sample": 60,
  "speed": 1,
  "wrapMode": 1,
  "curveData": {
    "comps": {
      "cc.Sprite": {
        "spriteFrame": [
          {
            "frame": 0,
            "value": {
              "__uuid__": "99ed825d-e3ae-4cd9-8e4a-dbf832b89e36"
            }
          }
        ]
      }
    }
  },
  "events": []
}