{
  "__type__": "cc.SpriteFrame",
  "content": {
    "name": "423",
    "texture": "6a2f4a8f-e7c5-42b3-883a-cb1fa1f62483",
    "atlas": "",
    "rect": [
      0,
      0,
      120,
      120
    ],
    "offset": [
      0,
      0
    ],
    "originalSize": [
      120,
      120
    ],
    "capInsets": [
      0,
      0,
      0,
      0
    ]
  }
}