{
  "__type__": "cc.AnimationClip",
  "_name": "boss_hurt",
  "_objFlags": 0,
  "_native": "",
  "_duration": 0.35,
  "sample": 60,
  "speed": 1,
  "wrapMode": 1,
  "curveData": {
    "comps": {
      "cc.Sprite": {
        "spriteFrame": [
          {
            "frame": 0,
            "value": {
              "__uuid__": "a8198518-d71e-41cf-b5b3-fc14e1650212"
            }
          },
          {
            "frame": 0.08333333333333333,
            "value": {
              "__uuid__": "2f4153ba-becf-47c9-9b60-f0246a6bd3f6"
            }
          },
          {
            "frame": 0.16666666666666666,
            "value": {
              "__uuid__": "4bbfca0c-d026-4488-beba-f56900420fec"
            }
          },
          {
            "frame": 0.25,
            "value": {
              "__uuid__": "3d57f4af-1a39-4080-a3f6-7f973d199e2f"
            }
          },
          {
            "frame": 0.3333333333333333,
            "value": {
              "__uuid__": "cb370421-9c40-4bda-ae45-638a086640cf"
            }
          }
        ]
      }
    }
  },
  "events": []
}