{
  "__type__": "cc.SpriteFrame",
  "content": {
    "name": "lobby_btn",
    "texture": "c5e05938-1f3c-47b8-9e80-86c3045f4a37",
    "atlas": "",
    "rect": [
      0,
      25,
      123,
      82
    ],
    "offset": [
      0,
      -4.5
    ],
    "originalSize": [
      123,
      123
    ],
    "capInsets": [
      0,
      0,
      0,
      0
    ]
  }
}