{
  "__type__": "cc.SpriteFrame",
  "content": {
    "name": "433",
    "texture": "ae426a63-0c39-4c56-8139-019ef99f88d0",
    "atlas": "",
    "rect": [
      0,
      0,
      120,
      120
    ],
    "offset": [
      0,
      0.5
    ],
    "originalSize": [
      120,
      121
    ],
    "capInsets": [
      0,
      0,
      0,
      0
    ]
  }
}