{
  "__type__": "cc.AnimationClip",
  "_name": "player_move_right",
  "_objFlags": 0,
  "_native": "",
  "_duration": 0.35,
  "sample": 60,
  "speed": 1,
  "wrapMode": 2,
  "curveData": {
    "comps": {
      "cc.Sprite": {
        "spriteFrame": [
          {
            "frame": 0,
            "value": {
              "__uuid__": "d66674bf-9f91-4b21-9e46-6474d8f12de6"
            }
          },
          {
            "frame": 0.08333333333333333,
            "value": {
              "__uuid__": "19bef5ca-2bbe-47d0-88a8-c6142c18c0cb"
            }
          },
          {
            "frame": 0.16666666666666666,
            "value": {
              "__uuid__": "250e1ddd-7ed4-4da8-8ff3-72dad9ab074b"
            }
          },
          {
            "frame": 0.25,
            "value": {
              "__uuid__": "52e579bd-9c68-4933-9b03-ba0612975c56"
            }
          },
          {
            "frame": 0.3333333333333333,
            "value": {
              "__uuid__": "ec8e36f3-d41e-488a-96cd-b1edbdf45d4d"
            }
          }
        ]
      }
    }
  },
  "events": []
}