{
  "__type__": "cc.AnimationClip",
  "_name": "bubble_explode",
  "_objFlags": 0,
  "_native": "",
  "_duration": 0.25,
  "sample": 60,
  "speed": 1,
  "wrapMode": 1,
  "curveData": {
    "comps": {
      "cc.Sprite": {
        "spriteFrame": [
          {
            "frame": 0,
            "value": {
              "__uuid__": "bb10e3e4-cb1a-43a5-9a62-6de0d1a22185"
            }
          },
          {
            "frame": 0.08333333333333333,
            "value": {
              "__uuid__": "dabd9a36-6902-4da2-b817-a7fa8f456414"
            }
          },
          {
            "frame": 0.16666666666666666,
            "value": {
              "__uuid__": "6b0afd9d-d823-4723-9443-efaa859373ac"
            }
          }
        ]
      }
    }
  },
  "events": []
}