{
  "__type__": "cc.AnimationClip",
  "_name": "player_idle_up",
  "_objFlags": 0,
  "_native": "",
  "_duration": 0.016666666666666666,
  "sample": 60,
  "speed": 1,
  "wrapMode": 1,
  "curveData": {
    "comps": {
      "cc.Sprite": {
        "spriteFrame": [
          {
            "frame": 0,
            "value": {
              "__uuid__": "597ee804-6134-4c6c-a4b2-80fa03b2a5d6"
            }
          }
        ]
      }
    }
  },
  "events": []
}