{
  "__type__": "cc.AnimationClip",
  "_name": "player_move_down",
  "_objFlags": 0,
  "_native": "",
  "_duration": 0.35,
  "sample": 60,
  "speed": 1,
  "wrapMode": 2,
  "curveData": {
    "comps": {
      "cc.Sprite": {
        "spriteFrame": [
          {
            "frame": 0,
            "value": {
              "__uuid__": "35f467ed-b059-41e3-9ba6-00f901826eb6"
            }
          },
          {
            "frame": 0.08333333333333333,
            "value": {
              "__uuid__": "2d85f2d7-b993-42b7-a2b9-5ec229c35de2"
            }
          },
          {
            "frame": 0.16666666666666666,
            "value": {
              "__uuid__": "7037160f-caab-47d7-9f20-4d6d1fa9d27d"
            }
          },
          {
            "frame": 0.25,
            "value": {
              "__uuid__": "bd7d1d99-f67e-4445-8a17-ab9678763a7e"
            }
          },
          {
            "frame": 0.3333333333333333,
            "value": {
              "__uuid__": "d85d3c69-e977-403d-8745-3529bb51db0b"
            }
          }
        ]
      }
    }
  },
  "events": []
}