{
  "__type__": "cc.AnimationClip",
  "_name": "player_in_bubble",
  "_objFlags": 0,
  "_native": "",
  "_duration": 0.016666666666666666,
  "sample": 60,
  "speed": 1,
  "wrapMode": 1,
  "curveData": {
    "comps": {
      "cc.Sprite": {
        "spriteFrame": [
          {
            "frame": 0,
            "value": {
              "__uuid__": "6fb733aa-b2b1-47d6-84c8-bd0178aa0a11"
            }
          }
        ]
      }
    }
  },
  "events": []
}