{
  "__type__": "cc.AnimationClip",
  "_name": "redblock_destroy",
  "_objFlags": 0,
  "_native": "",
  "_duration": 0.6,
  "sample": 60,
  "speed": 1,
  "wrapMode": 1,
  "curveData": {
    "comps": {
      "cc.Sprite": {
        "spriteFrame": [
          {
            "frame": 0,
            "value": {
              "__uuid__": "c9899a91-8cc9-49b9-88d8-1d1cc0697fe5"
            }
          },
          {
            "frame": 0.08333333333333333,
            "value": {
              "__uuid__": "688d0923-389b-45c8-a3f5-8b43ade4a7f8"
            }
          },
          {
            "frame": 0.16666666666666666,
            "value": {
              "__uuid__": "4959efe8-f78b-4ec9-a848-c4d563877434"
            }
          },
          {
            "frame": 0.25,
            "value": {
              "__uuid__": "d3e11adb-e186-4962-95db-861e0078edbf"
            }
          },
          {
            "frame": 0.3333333333333333,
            "value": {
              "__uuid__": "25f3afb9-7cd2-424b-90ff-abc1bca14b3e"
            }
          },
          {
            "frame": 0.4166666666666667,
            "value": {
              "__uuid__": "ebd50f02-7444-4bd6-8a31-f5ea83690cd0"
            }
          },
          {
            "frame": 0.5,
            "value": {
              "__uuid__": "604d0856-aca0-4951-957e-77e836302343"
            }
          },
          {
            "frame": 0.5833333333333334,
            "value": {
              "__uuid__": "436ecaae-84a2-4801-a6e1-f2e3a71e0394"
            }
          }
        ]
      }
    }
  },
  "events": []
}