{
  "__type__": "cc.AnimationClip",
  "_name": "pirate_idle_right",
  "_objFlags": 0,
  "_native": "",
  "_duration": 0.016666666666666666,
  "sample": 60,
  "speed": 1,
  "wrapMode": 1,
  "curveData": {
    "comps": {
      "cc.Sprite": {
        "spriteFrame": [
          {
            "frame": 0,
            "value": {
              "__uuid__": "8281e679-4d00-409a-ac8c-16d11d84518f"
            }
          }
        ]
      }
    }
  },
  "events": []
}