{
  "__type__": "cc.SpriteFrame",
  "content": {
    "name": "Image 479 at frame 9",
    "texture": "b0ce8aea-b1e3-4752-925a-b8065a2a298f",
    "atlas": "",
    "rect": [
      1,
      0,
      52,
      65
    ],
    "offset": [
      -1,
      1
    ],
    "originalSize": [
      56,
      67
    ],
    "capInsets": [
      0,
      0,
      0,
      0
    ]
  }
}