{
  "__type__": "cc.SpriteFrame",
  "content": {
    "name": "dec",
    "texture": "f00fe8b7-5aaf-42f7-bdfd-06d1f7c6aa73",
    "atlas": "",
    "rect": [
      12,
      14,
      293,
      306
    ],
    "offset": [
      -1.5,
      -7
    ],
    "originalSize": [
      320,
      320
    ],
    "capInsets": [
      0,
      0,
      0,
      0
    ]
  }
}