{
  "__type__": "cc.SpriteFrame",
  "content": {
    "name": "player",
    "texture": "861c65da-e092-48e8-be31-4132a70fb40d",
    "atlas": "",
    "rect": [
      11,
      16,
      44,
      57
    ],
    "offset": [
      0,
      -3.5
    ],
    "originalSize": [
      66,
      82
    ],
    "capInsets": [
      0,
      0,
      0,
      0
    ]
  }
}