{
  "__type__": "cc.SpriteFrame",
  "content": {
    "name": "474",
    "texture": "989f34d0-b296-4106-b5aa-ef8755feffd6",
    "atlas": "",
    "rect": [
      0,
      1,
      116,
      103
    ],
    "offset": [
      -0.5,
      0
    ],
    "originalSize": [
      117,
      105
    ],
    "capInsets": [
      0,
      0,
      0,
      0
    ]
  }
}