{
  "__type__": "cc.SpriteFrame",
  "content": {
    "name": "add_power",
    "texture": "b3379052-1c83-4641-8520-af0d5e5f9d4b",
    "atlas": "",
    "rect": [
      0,
      0,
      34,
      39
    ],
    "offset": [
      0,
      0
    ],
    "originalSize": [
      34,
      39
    ],
    "capInsets": [
      0,
      0,
      0,
      0
    ]
  }
}