{
  "__type__": "cc.AnimationClip",
  "_name": "reborn_from_bubble",
  "_objFlags": 0,
  "_native": "",
  "_duration": 0,
  "sample": 60,
  "speed": 1,
  "wrapMode": 1,
  "curveData": {
    "comps": {
      "cc.Sprite": {
        "spriteFrame": []
      }
    }
  },
  "events": []
}