{
  "__type__": "cc.SpriteAtlas",
  "_name": "redblock.plist",
  "_objFlags": 0,
  "_native": "",
  "_spriteFrames": {
    "Image 228 at frame 9": {
      "__uuid__": "7b445253-bd24-402a-b40c-accd6a6f64af"
    },
    "Image 229 at frame 9": {
      "__uuid__": "688d0923-389b-45c8-a3f5-8b43ade4a7f8"
    },
    "Image 230 at frame 9": {
      "__uuid__": "4959efe8-f78b-4ec9-a848-c4d563877434"
    },
    "Image 231 at frame 9": {
      "__uuid__": "d3e11adb-e186-4962-95db-861e0078edbf"
    },
    "Image 232 at frame 9": {
      "__uuid__": "25f3afb9-7cd2-424b-90ff-abc1bca14b3e"
    },
    "Image 233 at frame 9": {
      "__uuid__": "ebd50f02-7444-4bd6-8a31-f5ea83690cd0"
    },
    "Image 234 at frame 9": {
      "__uuid__": "6417faef-2cf2-4f8b-bd77-84d3343b15bd"
    },
    "Image 235 at frame 9": {
      "__uuid__": "436ecaae-84a2-4801-a6e1-f2e3a71e0394"
    }
  }
}