{
  "__type__": "cc.AnimationClip",
  "_name": "pirate_move_right",
  "_objFlags": 0,
  "_native": "",
  "_duration": 0.35,
  "sample": 60,
  "speed": 1,
  "wrapMode": 2,
  "curveData": {
    "comps": {
      "cc.Sprite": {
        "spriteFrame": [
          {
            "frame": 0,
            "value": {
              "__uuid__": "8281e679-4d00-409a-ac8c-16d11d84518f"
            }
          },
          {
            "frame": 0.08333333333333333,
            "value": {
              "__uuid__": "1c924551-0390-4207-9f95-407b5b4caeb2"
            }
          },
          {
            "frame": 0.16666666666666666,
            "value": {
              "__uuid__": "bba38849-b37c-4882-a6be-e8d9570e13b6"
            }
          },
          {
            "frame": 0.25,
            "value": {
              "__uuid__": "e4f530b7-cce0-4f84-a233-dfd42d7afc3c"
            }
          },
          {
            "frame": 0.3333333333333333,
            "value": {
              "__uuid__": "2296a34c-c165-48ac-b063-11a8c67c8a2b"
            }
          }
        ]
      }
    }
  },
  "events": []
}