{
  "__type__": "cc.SpriteFrame",
  "content": {
    "name": "back",
    "texture": "629ad12c-6fe3-4337-9272-5acad2ae2481",
    "atlas": "",
    "rect": [
      62,
      61,
      385,
      386
    ],
    "offset": [
      0.5,
      0
    ],
    "originalSize": [
      508,
      508
    ],
    "capInsets": [
      0,
      0,
      0,
      0
    ]
  }
}