{
  "__type__": "cc.SpriteFrame",
  "content": {
    "name": "427",
    "texture": "ec16bc35-6542-45a4-b17d-8f38e47296c7",
    "atlas": "",
    "rect": [
      0,
      1,
      120,
      120
    ],
    "offset": [
      0,
      -0.5
    ],
    "originalSize": [
      120,
      121
    ],
    "capInsets": [
      0,
      0,
      0,
      0
    ]
  }
}