{
  "__type__": "cc.SpriteFrame",
  "content": {
    "name": "road3",
    "texture": "efba2711-7c60-48b8-b2ba-f44b7a33b7a3",
    "atlas": "",
    "rect": [
      0,
      0,
      40,
      40
    ],
    "offset": [
      0,
      0
    ],
    "originalSize": [
      40,
      40
    ],
    "capInsets": [
      0,
      0,
      0,
      0
    ]
  }
}