{
  "__type__": "cc.SpriteFrame",
  "content": {
    "name": "793",
    "texture": "2ed441f0-fb09-4066-93fe-655f8c6ed864",
    "atlas": "",
    "rect": [
      1,
      1,
      40,
      56
    ],
    "offset": [
      0,
      0
    ],
    "originalSize": [
      42,
      58
    ],
    "capInsets": [
      0,
      0,
      0,
      0
    ]
  }
}