{
  "__type__": "cc.SpriteFrame",
  "content": {
    "name": "435",
    "texture": "6e4a864e-e60a-498b-a00f-9ac8085b77ea",
    "atlas": "",
    "rect": [
      0,
      0,
      119,
      120
    ],
    "offset": [
      0,
      0
    ],
    "originalSize": [
      119,
      120
    ],
    "capInsets": [
      0,
      0,
      0,
      0
    ]
  }
}