{
  "__type__": "cc.SpriteFrame",
  "content": {
    "name": "462",
    "texture": "f5903508-4d5b-4607-b079-0aaa79729cde",
    "atlas": "",
    "rect": [
      1,
      1,
      118,
      92
    ],
    "offset": [
      0.5,
      0
    ],
    "originalSize": [
      119,
      94
    ],
    "capInsets": [
      0,
      0,
      0,
      0
    ]
  }
}