{
  "__type__": "cc.SpriteFrame",
  "content": {
    "name": "466",
    "texture": "d73f10da-f978-4b46-a03d-6ec36db1f4ed",
    "atlas": "",
    "rect": [
      1,
      0,
      116,
      103
    ],
    "offset": [
      0.5,
      0.5
    ],
    "originalSize": [
      117,
      104
    ],
    "capInsets": [
      0,
      0,
      0,
      0
    ]
  }
}