{
  "__type__": "cc.SpriteFrame",
  "content": {
    "name": "Image 472 at frame 9",
    "texture": "4192c501-e633-4f3c-9c7f-e84341c64fe8",
    "atlas": "",
    "rect": [
      5,
      3,
      42,
      61
    ],
    "offset": [
      -2,
      0
    ],
    "originalSize": [
      56,
      67
    ],
    "capInsets": [
      0,
      0,
      0,
      0
    ]
  }
}