{
  "__type__": "cc.SpriteFrame",
  "content": {
    "name": "question mark",
    "texture": "73c654e9-4d15-4953-8f6c-66b9792723ad",
    "atlas": "",
    "rect": [
      63,
      7,
      132,
      178
    ],
    "offset": [
      -0.5,
      1
    ],
    "originalSize": [
      259,
      194
    ],
    "capInsets": [
      0,
      0,
      0,
      0
    ]
  }
}