{
  "__type__": "cc.SpriteFrame",
  "content": {
    "name": "moveblock",
    "texture": "c6f6a177-29a8-4e74-9919-2c3afadf323d",
    "atlas": "",
    "rect": [
      0,
      0,
      40,
      44
    ],
    "offset": [
      0,
      0
    ],
    "originalSize": [
      40,
      44
    ],
    "capInsets": [
      0,
      0,
      0,
      0
    ]
  }
}