{
  "__type__": "cc.SpriteFrame",
  "content": {
    "name": "grass",
    "texture": "4182c730-7653-4144-95ac-d244d3709f7a",
    "atlas": "",
    "rect": [
      4,
      4,
      40,
      57
    ],
    "offset": [
      0,
      0
    ],
    "originalSize": [
      48,
      65
    ],
    "capInsets": [
      0,
      0,
      0,
      0
    ]
  }
}