{
  "__type__": "cc.SpriteFrame",
  "content": {
    "name": "bg5",
    "texture": "28bf4097-6dfa-41f9-91c5-f7fe5b908f32",
    "atlas": "",
    "rect": [
      2,
      200,
      389,
      185
    ],
    "offset": [
      -67,
      -94
    ],
    "originalSize": [
      527,
      397
    ],
    "capInsets": [
      0,
      0,
      0,
      0
    ]
  }
}