{
  "__type__": "cc.AnimationClip",
  "_name": "orangeblock_destroy",
  "_objFlags": 0,
  "_native": "",
  "_duration": 0.5166666666666667,
  "sample": 60,
  "speed": 0.75,
  "wrapMode": 1,
  "curveData": {
    "comps": {
      "cc.Sprite": {
        "spriteFrame": [
          {
            "frame": 0,
            "value": {
              "__uuid__": "2e8e4cc5-bd9d-45d9-aeda-0d1bbeb58559"
            }
          },
          {
            "frame": 0.08333333333333333,
            "value": {
              "__uuid__": "b5053af6-d695-4192-b348-66e0284737a0"
            }
          },
          {
            "frame": 0.16666666666666666,
            "value": {
              "__uuid__": "f05800ce-ca37-438f-95ee-5112f37e5352"
            }
          },
          {
            "frame": 0.25,
            "value": {
              "__uuid__": "4445535a-f102-47c6-a943-1f9137b10eb0"
            }
          },
          {
            "frame": 0.3333333333333333,
            "value": {
              "__uuid__": "9cb687eb-74aa-4420-8950-418f8fc43f11"
            }
          },
          {
            "frame": 0.4166666666666667,
            "value": {
              "__uuid__": "29b8c757-995c-443a-a3b6-0ac40f92a2f4"
            }
          },
          {
            "frame": 0.5,
            "value": {
              "__uuid__": "b5628c82-2a5e-4c96-a038-05b36f3b78e4"
            }
          }
        ]
      }
    }
  },
  "events": []
}