{
  "__type__": "cc.SpriteFrame",
  "content": {
    "name": "Image 223 at frame 9",
    "texture": "0114eeaf-e8f9-4d76-b099-6336d0618eea",
    "atlas": "8e9bf64d-0bb9-4c37-9251-9af1bf56c5e1",
    "rect": [
      170,
      1,
      40,
      44
    ],
    "offset": [
      0,
      0
    ],
    "originalSize": [
      40,
      44
    ],
    "capInsets": [
      0,
      0,
      0,
      0
    ]
  }
}