{
  "__type__": "cc.SpriteFrame",
  "content": {
    "name": "753",
    "texture": "47d21528-ae89-4fdf-ab8a-dbd0178c7b5a",
    "atlas": "",
    "rect": [
      0,
      1,
      40,
      44
    ],
    "offset": [
      0,
      -0.5
    ],
    "originalSize": [
      40,
      45
    ],
    "capInsets": [
      0,
      0,
      0,
      0
    ]
  }
}